0,21.3,1.471
0.2,21.3,1.523
0.4,21.3,1.483
0.6,21.3,1.501
0.8,21.3,1.493
1,21.3,1.5
1.2,21.3,1.51
1.4,21.3,1.499
1.6,21.3,1.491
1.8,21.3,1.507
2,21.3,1.499
2.2,21.3,1.497
2.4,21.3,1.503
2.6,21.3,1.485
2.8,21.3,1.523
3,21.3,1.499
3.2,21.3,1.5
3.4,21.3,1.501
3.6,21.3,1.497
3.8,21.3,1.485
4,21.3,1.511
4.2,21.3,1.505
4.4,21.3,1.51
4.6,21.3,1.495
4.8,21.3,1.51
5,21.3,1.514
5.2,21.3,1.509
5.4,21.3,1.508
5.6,21.3,1.497
5.8,21.3,1.48
6,21.3,1.517
6.2,21.3,1.487
6.4,21.3,1.54
6.6,21.3,1.515
6.8,21.3,1.479
7,21.3,1.506
7.2,21.3,1.507
7.4,21.3,1.496
7.6,21.3,1.498
7.8,21.3,1.496
8,21.3,1.489
8.2,21.3,1.521
8.4,21.3,1.505
8.6,21.3,1.498
8.8,21.3,1.493
9,21.3,1.497
9.2,21.3,1.489
9.4,21.3,1.492
9.6,21.3,1.501
9.8,21.3,1.507
10,21.3,1.504
10.2,21.3,1.497
10.4,21.3,1.495
10.6,21.3,1.538
10.8,21.3,1.484
11,21.3,1.506
11.2,21.3,1.506
11.4,21.3,1.494
11.6,21.3,1.535
11.8,21.3,1.495
12,21.3,1.488
12.2,21.3,1.513
12.4,21.3,1.502
12.6,21.3,1.512
12.8,21.3,1.498
13,21.3,1.506
13.2,21.3,1.486
13.4,21.3,1.495
13.6,21.3,1.488
13.8,21.3,1.509
14,21.3,1.525
14.2,21.3,1.494
14.4,21.3,1.492
14.6,21.3,1.499
14.8,21.3,1.502
15,21.3,1.51
15.2,21.3,1.497
15.4,21.3,1.509
15.6,21.3,1.513
15.8,21.3,1.496
16,21.3,1.501
16.2,21.3,1.493
16.4,21.3,1.482
16.6,21.3,1.501
16.8,21.3,1.477
17,21.3,1.523
17.2,21.3,1.484
17.4,21.3,1.516
17.6,21.3,1.511
17.8,21.3,1.497
18,21.3,1.476
18.2,21.3,1.503
18.4,21.3,1.466
18.6,21.3,1.494
18.8,21.3,1.475
19,21.3,1.502
19.2,21.3,1.492
19.4,21.3,1.491
19.6,21.3,1.506
19.8,21.3,1.504
20,21.3,1.497
20.2,21.3,1.513
20.4,21.3,1.509
20.6,21.3,1.504
20.8,21.3,1.476
21,21.3,1.506
21.2,21.3,1.52
21.4,21.3,1.5
21.6,21.3,1.507
21.8,21.3,1.522
22,21.3,1.502
22.2,21.3,1.51
22.4,21.3,1.519
22.6,21.3,1.492
22.8,21.3,1.523
23,21.3,1.48
23.2,21.3,1.499
23.4,21.3,1.5
23.6,21.3,1.493
23.8,21.3,1.483
24,21.3,1.492
24.2,21.3,1.471
24.4,21.3,1.496
24.6,21.3,1.501
24.8,21.3,1.507
25,21.3,1.504
25.2,21.3,1.51
25.4,21.3,1.501
25.6,21.3,1.5
25.8,21.3,1.465
26,21.3,1.521
26.2,21.3,1.486
26.4,21.3,1.486
26.6,21.3,1.502
26.8,21.3,1.492
27,21.3,1.506
27.2,21.3,1.524
27.4,21.3,1.528
27.6,21.3,1.511
27.8,21.3,1.491
28,21.3,1.49
28.2,21.3,1.493
28.4,21.3,1.498
28.6,21.3,1.492
28.8,21.3,1.52
29,21.3,1.506
29.2,21.3,1.506
29.4,21.3,1.494
29.6,21.3,1.498
29.8,21.3,1.499
30,21.3,1.521
30.2,21.3,1.489
30.4,21.3,1.502
30.6,21.3,1.479
30.8,21.3,1.475
31,21.3,1.49
31.2,21.3,1.499
31.4,21.3,1.491
31.6,21.3,1.499
31.8,21.3,1.524
32,21.3,1.493
32.2,21.3,1.491
32.4,21.3,1.497
32.6,21.3,1.51
32.8,21.3,1.511
33,18.057,1.513
33.2,18.057,1.498
33.4,18.057,1.493
33.6,18.057,1.478
33.8,18.057,1.488
34,18.057,1.491
34.2,18.057,1.467
34.4,18.057,1.461
34.6,18.057,1.457
34.8,18.057,1.448
35,18.057,1.448
35.2,18.057,1.401
35.4,18.057,1.411
35.6,18.057,1.418
35.8,18.057,1.397
36,18.057,1.357
36.2,18.057,1.352
36.4,18.057,1.348
36.6,18.057,1.329
36.8,18.057,1.313
37,18.057,1.318
37.2,18.057,1.309
37.4,18.057,1.295
37.6,18.057,1.324
37.8,18.057,1.291
38,18.057,1.259
38.2,18.057,1.257
38.4,18.057,1.254
38.6,18.057,1.243
38.8,18.057,1.232
39,18.057,1.234
39.2,18.057,1.222
39.4,18.057,1.229
39.6,18.057,1.216
39.8,18.057,1.19
40,18.057,1.21
40.2,18.057,1.19
40.4,18.057,1.171
40.6,18.057,1.195
40.8,18.057,1.18
41,18.057,1.171
41.2,18.057,1.19
41.4,18.057,1.207
41.6,18.057,1.147
41.8,18.057,1.165
42,18.057,1.191
42.2,18.057,1.19
42.4,18.057,1.151
42.6,18.057,1.149
42.8,18.057,1.184
43,18.057,1.151
43.2,18.057,1.182
43.4,18.057,1.117
43.6,18.057,1.16
43.8,18.057,1.107
44,18.057,1.13
44.2,18.057,1.134
44.4,18.057,1.121
44.6,18.057,1.138
44.8,18.057,1.14
45,18.057,1.127
45.2,18.057,1.125
45.4,18.057,1.116
45.6,18.057,1.133
45.8,18.057,1.116
46,18.057,1.115
46.2,18.057,1.108
46.4,18.057,1.117
46.6,18.057,1.119
46.8,18.057,1.124
47,18.057,1.123
47.2,18.057,1.096
47.4,18.057,1.115
47.6,18.057,1.126
47.8,18.057,1.085
48,18.057,1.095
48.2,18.057,1.114
48.4,18.057,1.077
48.6,18.057,1.113
48.8,18.057,1.091
49,18.057,1.1
49.2,18.057,1.099
49.4,18.057,1.088
49.6,18.057,1.091
49.8,18.057,1.091
50,18.057,1.118
50.2,18.057,1.105
50.4,18.057,1.103
50.6,18.057,1.092
50.8,18.057,1.098
51,18.057,1.095
51.2,18.057,1.089
51.4,18.057,1.107
51.6,18.057,1.091
51.8,18.057,1.08
52,18.057,1.104
52.2,18.057,1.087
52.4,18.057,1.092
52.6,18.057,1.084
52.8,18.057,1.093
53,18.057,1.085
53.2,18.057,1.078
53.4,18.057,1.085
53.6,18.057,1.083
53.8,18.057,1.094
54,18.057,1.104
54.2,18.057,1.076
54.4,18.057,1.08
54.6,18.057,1.066
54.8,18.057,1.061
55,18.057,1.061
55.2,18.057,1.076
55.4,18.057,1.078
55.6,18.057,1.071
55.8,18.057,1.091
56,18.057,1.084
56.2,18.057,1.071
56.4,18.057,1.093
56.6,18.057,1.071
56.8,18.057,1.079
57,18.057,1.073
57.2,18.057,1.081
57.4,18.057,1.062
57.6,18.057,1.091
57.8,18.057,1.077
58,18.057,1.099
58.2,18.057,1.076
58.4,18.057,1.099
58.6,18.057,1.071
58.8,18.057,1.071
59,18.057,1.067
59.2,18.057,1.078
59.4,18.057,1.051
59.6,18.057,1.087
59.8,18.057,1.076
60,18.057,1.1
60.2,18.057,1.086
60.4,18.057,1.081
60.6,18.057,1.103
60.8,18.057,1.09
61,18.057,1.071
61.2,18.057,1.089
61.4,18.057,1.083
61.6,18.057,1.072
61.8,18.057,1.091
62,18.057,1.064
62.2,18.057,1.068
62.4,18.057,1.078
62.6,18.057,1.067
62.8,18.057,1.101
63,18.057,1.092
63.2,18.057,1.096
63.4,18.057,1.064
63.6,18.057,1.107
63.8,18.057,1.075
64,18.057,1.075
64.2,18.057,1.063
64.4,18.057,1.057
64.6,18.057,1.083
64.8,18.057,1.061
65,18.057,1.089
65.2,18.057,1.093
65.4,18.057,1.066
65.6,18.057,1.091
65.8,18.057,1.092
66,18.057,1.071
66.2,18.057,1.088
66.4,18.057,1.063
66.6,18.057,1.083
66.8,18.057,1.101
67,18.057,1.067
67.2,18.057,1.088
67.4,18.057,1.049
67.6,18.057,1.057
67.8,18.057,1.087
68,18.057,1.062
68.2,18.057,1.074
68.4,18.057,1.083
68.6,18.057,1.083
68.8,18.057,1.083
69,18.057,1.085
69.2,18.057,1.109
69.4,18.057,1.065
69.6,18.057,1.073
69.8,18.057,1.095
70,18.057,1.111
70.2,18.057,1.067
70.4,18.057,1.064
70.6,18.057,1.076
70.8,18.057,1.073
71,18.057,1.079
71.2,18.057,1.085
71.4,18.057,1.068
71.6,18.057,1.101
71.8,18.057,1.073
72,18.057,1.071
72.2,18.057,1.068
72.4,18.057,1.083
72.6,18.057,1.094
72.8,18.057,1.073
73,18.057,1.091
73.2,18.057,1.066
73.4,18.057,1.092
73.6,18.057,1.095
73.8,18.057,1.089
74,18.057,1.094
74.2,18.057,1.057
74.4,18.057,1.088
74.6,18.057,1.079
74.8,18.057,1.095
75,18.057,1.067
75.2,18.057,1.073
75.4,18.057,1.08
75.6,18.057,1.065
75.8,18.057,1.085
76,18.057,1.079
76.2,18.057,1.085
76.4,18.057,1.078
76.6,18.057,1.051
76.8,18.057,1.078
77,18.057,1.09
77.2,18.057,1.082
77.4,18.057,1.092
77.6,18.057,1.1
77.8,18.057,1.071
78,18.057,1.075
78.2,18.057,1.08
78.4,18.057,1.056
78.6,18.057,1.077
78.8,18.057,1.094
79,18.057,1.11
79.2,18.057,1.098
79.4,18.057,1.086
79.6,18.057,1.066
79.8,18.057,1.079
80,18.057,1.073
80.2,18.057,1.079
80.4,18.057,1.081
80.6,18.057,1.068
80.8,18.057,1.098
81,18.057,1.101
81.2,18.057,1.073
81.4,18.057,1.07
81.6,18.057,1.075
81.8,18.057,1.072
82,18.057,1.078
82.2,18.057,1.07
82.4,18.057,1.095
82.6,18.057,1.103
82.8,18.057,1.084
83,18.057,1.077
83.2,18.057,1.08
83.4,18.057,1.066
83.6,18.057,1.108
83.8,18.057,1.047
84,18.057,1.082
84.2,18.057,1.1
84.4,18.057,1.074
84.6,18.057,1.075
84.8,18.057,1.068
85,18.057,1.105
85.2,18.057,1.065
85.4,18.057,1.095
85.6,18.057,1.055
85.8,18.057,1.054
86,18.057,1.063
86.2,18.057,1.092
86.4,18.057,1.049
86.6,18.057,1.072
86.8,18.057,1.052
87,18.057,1.126
87.2,18.057,1.071
87.4,18.057,1.083
87.6,18.057,1.109
87.8,18.057,1.047
88,18.057,1.065
88.2,18.057,1.077
88.4,18.057,1.048
88.6,18.057,1.076
88.8,18.057,1.065
89,18.057,1.085
89.2,18.057,1.066
89.4,18.057,1.102
89.6,18.057,1.092
89.8,18.057,1.082
90,18.057,1.095
90.2,18.057,1.085
90.4,18.057,1.092
90.6,18.057,1.087
90.8,18.057,1.069
91,18.057,1.084
91.2,18.057,1.102
91.4,18.057,1.09
91.6,18.057,1.075
91.8,18.057,1.073
92,18.057,1.078
92.2,18.057,1.069
92.4,18.057,1.09
92.6,18.057,1.066
92.8,18.057,1.07
93,18.057,1.057
93.2,18.057,1.093
93.4,18.057,1.07
93.6,18.057,1.079
93.8,18.057,1.08
94,18.057,1.068
94.2,18.057,1.06
94.4,18.057,1.057
94.6,18.057,1.089
94.8,18.057,1.078
95,18.057,1.092
95.2,18.057,1.034
95.4,18.057,1.069
95.6,18.057,1.084
95.8,18.057,1.087
96,18.057,1.077
96.2,18.057,1.072
96.4,18.057,1.054
96.6,18.057,1.068
96.8,18.057,1.055
97,18.057,1.08
97.2,18.057,1.071
97.4,18.057,1.068
97.6,18.057,1.081
97.8,18.057,1.078
98,18.057,1.077
98.2,18.057,1.072
98.4,18.057,1.087
98.6,18.057,1.081
98.8,18.057,1.092
99,18.057,1.07
99.2,18.057,1.1
99.4,18.057,1.066
99.6,18.057,1.079
99.8,18.057,1.074
100,18.057,1.081
100.2,18.057,1.089
100.4,18.057,1.083
100.6,18.057,1.058
100.8,18.057,1.072
101,18.057,1.096
101.2,18.057,1.092
101.4,18.057,1.098
101.6,18.057,1.08
101.8,18.057,1.074
102,18.057,1.068
102.2,18.057,1.067
102.4,18.057,1.074
102.6,18.057,1.086
102.8,18.057,1.078
103,18.057,1.07
103.2,18.057,1.086
103.4,18.057,1.067
103.6,18.057,1.057
103.8,18.057,1.092
104,18.057,1.084
104.2,18.057,1.084
104.4,18.057,1.077
104.6,18.057,1.076
104.8,18.057,1.079
105,18.057,1.064
105.2,18.057,1.073
105.4,18.057,1.041
105.6,18.057,1.07
105.8,18.057,1.083
106,18.057,1.07
106.2,18.057,1.11
106.4,18.057,1.048
106.6,18.057,1.067
106.8,18.057,1.066
107,18.057,1.061
107.2,18.057,1.081
107.4,18.057,1.065
107.6,18.057,1.105
107.8,18.057,1.076
108,18.057,1.067
108.2,18.057,1.083
108.4,18.057,1.092
108.6,18.057,1.067
108.8,18.057,1.075
109,18.057,1.09
109.2,22.025,1.102
109.4,22.025,1.085
109.6,22.025,1.103
109.8,22.025,1.1
110,22.025,1.116
110.2,22.025,1.088
110.4,22.025,1.082
110.6,22.025,1.123
110.8,22.025,1.132
111,22.025,1.151
111.2,22.025,1.159
111.4,22.025,1.171
111.6,22.025,1.197
111.8,22.025,1.18
112,22.025,1.188
112.2,22.025,1.233
112.4,22.025,1.237
112.6,22.025,1.239
112.8,22.025,1.287
113,22.025,1.278
113.2,22.025,1.262
113.4,22.025,1.288
113.6,22.025,1.273
113.8,22.025,1.327
114,22.025,1.304
114.2,22.025,1.345
114.4,22.025,1.337
114.6,22.025,1.361
114.8,22.025,1.375
115,22.025,1.379
115.2,22.025,1.366
115.4,22.025,1.398
115.6,22.025,1.404
115.8,22.025,1.387
116,22.025,1.398
116.2,22.025,1.434
116.4,22.025,1.431
116.6,22.025,1.435
116.8,22.025,1.433
117,22.025,1.452
117.2,22.025,1.444
117.4,22.025,1.463
117.6,22.025,1.472
117.8,22.025,1.48
118,22.025,1.465
118.2,22.025,1.48
118.4,22.025,1.503
118.6,22.025,1.5
118.8,22.025,1.509
119,22.025,1.521
119.2,22.025,1.522
119.4,22.025,1.506
119.6,22.025,1.513
119.8,22.025,1.521
120,22.025,1.504
120.2,22.025,1.491
120.4,22.025,1.496
120.6,22.025,1.528
120.8,22.025,1.539
121,22.025,1.523
121.2,22.025,1.557
121.4,22.025,1.535
121.6,22.025,1.527
121.8,22.025,1.545
122,22.025,1.531
122.2,22.025,1.544
122.4,22.025,1.535
122.6,22.025,1.554
122.8,22.025,1.546
123,22.025,1.549
123.2,22.025,1.576
123.4,22.025,1.55
123.6,22.025,1.557
123.8,22.025,1.576
124,22.025,1.567
124.2,22.025,1.555
124.4,22.025,1.564
124.6,22.025,1.545
124.8,18.778,1.562
125,18.778,1.569
125.2,18.778,1.56
125.4,18.778,1.546
125.6,18.778,1.559
125.8,18.778,1.567
126,18.778,1.552
126.2,18.778,1.536
126.4,18.778,1.541
126.6,18.778,1.553
126.8,18.778,1.51
127,18.778,1.477
127.2,18.778,1.49
127.4,18.778,1.485
127.6,18.778,1.491
127.8,18.778,1.456
128,18.778,1.493
128.2,18.778,1.465
128.4,18.778,1.425
128.6,18.778,1.43
128.8,18.778,1.387
129,18.778,1.394
129.2,18.778,1.375
129.4,18.778,1.397
129.6,18.778,1.363
129.8,18.778,1.36
130,18.778,1.366
130.2,18.778,1.361
130.4,18.778,1.329
130.6,18.778,1.332
130.8,18.778,1.32
131,18.778,1.288
131.2,18.778,1.307
131.4,18.778,1.31
131.6,18.778,1.297
131.8,18.778,1.298
132,18.778,1.291
132.2,18.778,1.282
132.4,18.778,1.3
132.6,18.778,1.3
132.8,18.778,1.27
133,18.778,1.248
133.2,18.778,1.285
133.4,18.778,1.248
133.6,18.778,1.272
133.8,18.778,1.271
134,18.778,1.253
134.2,18.778,1.261
134.4,18.778,1.254
134.6,18.778,1.226
134.8,18.778,1.244
135,18.778,1.241
135.2,18.778,1.227
135.4,18.778,1.222
135.6,18.778,1.206
135.8,18.778,1.257
136,18.778,1.236
136.2,18.778,1.214
136.4,18.778,1.228
136.6,18.778,1.203
136.8,18.778,1.209
137,18.778,1.217
137.2,18.778,1.217
137.4,18.778,1.175
137.6,18.778,1.197
137.8,18.778,1.199
138,18.778,1.21
138.2,18.778,1.196
138.4,18.778,1.197
138.6,18.778,1.189
138.8,18.778,1.197
139,18.778,1.195
139.2,18.778,1.192
139.4,18.778,1.178
139.6,18.778,1.198
139.8,18.778,1.176
140,18.778,1.174
140.2,18.778,1.169
140.4,22,1.206
140.6,22,1.188
140.8,22,1.192
141,22,1.186
141.2,22,1.166
141.4,22,1.181
141.6,22,1.227
141.8,22,1.222
142,22,1.209
142.2,22,1.243
142.4,22,1.236
142.6,22,1.288
142.8,22,1.292
143,22,1.271
143.2,22,1.301
143.4,22,1.312
143.6,22,1.296
143.8,22,1.329
144,22,1.311
144.2,22,1.34
144.4,22,1.333
144.6,22,1.372
144.8,22,1.34
145,22,1.386
145.2,22,1.377
145.4,22,1.4
145.6,22,1.416
145.8,22,1.39
146,22,1.399
146.2,22,1.399
146.4,22,1.43
146.6,22,1.436
146.8,22,1.439
147,22,1.427
147.2,22,1.427
147.4,22,1.44
147.6,22,1.442
147.8,22,1.452
148,22,1.475
148.2,22,1.456
148.4,22,1.457
148.6,22,1.498
148.8,22,1.451
149,22,1.467
149.2,22,1.492
149.4,22,1.507
149.6,22,1.508
149.8,22,1.501
150,22,1.507
150.2,22,1.481
150.4,22,1.525
150.6,22,1.496
150.8,22,1.52
151,22,1.529
151.2,22,1.523
151.4,22,1.517
151.6,22,1.548
151.8,22,1.53
152,22,1.553
152.2,22,1.547
152.4,22,1.538
152.6,22,1.543
152.8,22,1.557
153,22,1.554
153.2,22,1.545
153.4,22,1.55
153.6,22,1.525
153.8,22,1.556
154,22,1.57
154.2,22,1.549
154.4,22,1.584
154.6,22,1.572
154.8,22,1.554
155,22,1.56
155.2,22,1.562
155.4,22,1.575
155.6,22,1.567
155.8,22,1.58
156,19.406,1.587
156.2,19.406,1.574
156.4,19.406,1.555
156.6,19.406,1.577
156.8,19.406,1.549
157,19.406,1.535
157.2,19.406,1.565
157.4,19.406,1.525
157.6,19.406,1.561
157.8,19.406,1.548
158,19.406,1.517
158.2,19.406,1.524
158.4,19.406,1.505
158.6,19.406,1.489
158.8,19.406,1.499
159,19.406,1.489
159.2,19.406,1.498
159.4,19.406,1.472
159.6,19.406,1.461
159.8,19.406,1.441
160,19.406,1.428
160.2,19.406,1.451
160.4,19.406,1.427
160.6,19.406,1.404
160.8,19.406,1.415
161,19.406,1.428
161.2,19.406,1.418
161.4,19.406,1.39
161.6,19.406,1.39
161.8,19.406,1.367
162,19.406,1.349
162.2,19.406,1.381
162.4,19.406,1.356
162.6,19.406,1.37
162.8,19.406,1.338
163,19.406,1.351
163.2,19.406,1.346
163.4,19.406,1.363
163.6,19.406,1.344
163.8,19.406,1.34
164,19.406,1.334
164.2,19.406,1.335
164.4,19.406,1.327
164.6,19.406,1.335
164.8,19.406,1.32
165,19.406,1.307
165.2,19.406,1.29
165.4,19.406,1.306
165.6,19.406,1.311
165.8,19.406,1.315
166,19.406,1.285
166.2,19.406,1.307
166.4,19.406,1.281
166.6,19.406,1.319
166.8,19.406,1.281
167,19.406,1.285
167.2,19.406,1.283
167.4,19.406,1.303
167.6,19.406,1.302
167.8,19.406,1.277
168,19.406,1.268
168.2,19.406,1.29
168.4,19.406,1.282
168.6,19.406,1.304
168.8,19.406,1.302
169,19.406,1.275
169.2,19.406,1.267
169.4,19.406,1.273
169.6,19.406,1.271
169.8,19.406,1.284
170,19.406,1.264
170.2,19.406,1.275
170.4,19.406,1.249
170.6,19.406,1.286
170.8,19.406,1.269
171,19.406,1.269
171.2,19.406,1.269
171.4,19.406,1.274
171.6,24.21,1.247
171.8,24.21,1.26
172,24.21,1.261
172.2,24.21,1.28
172.4,24.21,1.301
172.6,24.21,1.292
172.8,24.21,1.302
173,24.21,1.317
173.2,24.21,1.322
173.4,24.21,1.327
173.6,24.21,1.372
173.8,24.21,1.355
174,24.21,1.367
174.2,24.21,1.399
174.4,24.21,1.408
174.6,24.21,1.435
174.8,24.21,1.46
175,24.21,1.468
175.2,24.21,1.475
175.4,24.21,1.494
175.6,24.21,1.503
175.8,24.21,1.527
176,24.21,1.551
176.2,24.21,1.549
176.4,24.21,1.556
176.6,24.21,1.584
176.8,24.21,1.575
177,24.21,1.598
177.2,24.21,1.617
177.4,24.21,1.623
177.6,24.21,1.626
177.8,24.21,1.644
178,24.21,1.65
178.2,24.21,1.656
178.4,24.21,1.672
178.6,24.21,1.677
178.8,24.21,1.697
179,24.21,1.704
179.2,24.21,1.718
179.4,24.21,1.733
179.6,24.21,1.734
179.8,24.21,1.722
180,24.21,1.776
180.2,24.21,1.757
180.4,24.21,1.756
180.6,24.21,1.778
180.8,24.21,1.764
181,24.21,1.781
181.2,24.21,1.789
181.4,24.21,1.803
181.6,24.21,1.787
181.8,24.21,1.806
182,24.21,1.798
182.2,24.21,1.811
182.4,24.21,1.822
182.6,24.21,1.81
182.8,24.21,1.821
183,24.21,1.821
183.2,24.21,1.845
183.4,24.21,1.828
183.6,24.21,1.85
183.8,24.21,1.831
184,24.21,1.876
184.2,24.21,1.864
184.4,24.21,1.893
184.6,24.21,1.85
184.8,24.21,1.839
185,24.21,1.857
185.2,24.21,1.896
185.4,24.21,1.853
185.6,24.21,1.842
185.8,24.21,1.867
186,24.21,1.857
186.2,24.21,1.892
186.4,24.21,1.877
186.6,24.21,1.886
186.8,24.21,1.9
187,24.21,1.878
187.2,19.214,1.89
187.4,19.214,1.888
187.6,19.214,1.848
187.8,19.214,1.895
188,19.214,1.879
188.2,19.214,1.857
188.4,19.214,1.848
188.6,19.214,1.862
188.8,19.214,1.817
189,19.214,1.804
189.2,19.214,1.79
189.4,19.214,1.785
189.6,19.214,1.776
189.8,19.214,1.745
190,19.214,1.716
190.2,19.214,1.705
190.4,19.214,1.686
190.6,19.214,1.661
190.8,19.214,1.669
191,19.214,1.637
191.2,19.214,1.605
191.4,19.214,1.624
191.6,19.214,1.581
191.8,19.214,1.595
192,19.214,1.579
192.2,19.214,1.565
192.4,19.214,1.531
192.6,19.214,1.542
192.8,19.214,1.505
193,19.214,1.526
193.2,19.214,1.481
193.4,19.214,1.474
193.6,19.214,1.471
193.8,19.214,1.447
194,19.214,1.439
194.2,19.214,1.421
194.4,19.214,1.44
194.6,19.214,1.412
194.8,19.214,1.413
195,19.214,1.406
195.2,19.214,1.412
195.4,19.214,1.411
195.6,19.214,1.395
195.8,19.214,1.373
196,19.214,1.37
196.2,19.214,1.335
196.4,19.214,1.336
196.6,19.214,1.356
196.8,19.214,1.355
197,19.214,1.331
197.2,19.214,1.305
197.4,19.214,1.323
197.6,19.214,1.337
197.8,19.214,1.327
198,19.214,1.315
198.2,19.214,1.319
198.4,19.214,1.301
198.6,19.214,1.323
198.8,19.214,1.28
199,19.214,1.321
199.2,19.214,1.29
199.4,19.214,1.306
199.6,19.214,1.294
199.8,19.214,1.299
200,19.214,1.259
200.2,19.214,1.283
200.4,19.214,1.302
200.6,19.214,1.303
200.8,19.214,1.289
201,19.214,1.261
201.2,19.214,1.259
201.4,19.214,1.244
201.6,19.214,1.241
201.8,19.214,1.254
202,19.214,1.265
202.2,19.214,1.265
202.4,19.214,1.279
202.6,19.214,1.281
202.8,24.324,1.259
203,24.324,1.254
203.2,24.324,1.265
203.4,24.324,1.259
203.6,24.324,1.285
203.8,24.324,1.3
204,24.324,1.3
204.2,24.324,1.311
204.4,24.324,1.312
204.6,24.324,1.357
204.8,24.324,1.348
205,24.324,1.381
205.2,24.324,1.37
205.4,24.324,1.406
205.6,24.324,1.425
205.8,24.324,1.415
206,24.324,1.462
206.2,24.324,1.462
206.4,24.324,1.477
206.6,24.324,1.489
206.8,24.324,1.511
207,24.324,1.502
207.2,24.324,1.538
207.4,24.324,1.536
207.6,24.324,1.562
207.8,24.324,1.586
208,24.324,1.596
208.2,24.324,1.585
208.4,24.324,1.593
208.6,24.324,1.627
208.8,24.324,1.617
209,24.324,1.639
209.2,24.324,1.651
209.4,24.324,1.7
209.6,24.324,1.723
209.8,24.324,1.68
210,24.324,1.706
210.2,24.324,1.692
210.4,24.324,1.718
210.6,24.324,1.723
210.8,24.324,1.753
211,24.324,1.745
211.2,24.324,1.748
211.4,24.324,1.76
211.6,24.324,1.775
211.8,24.324,1.769
212,24.324,1.779
212.2,24.324,1.769
212.4,24.324,1.788
212.6,24.324,1.778
212.8,24.324,1.801
213,24.324,1.78
213.2,24.324,1.822
213.4,24.324,1.811
213.6,24.324,1.826
213.8,24.324,1.843
214,24.324,1.837
214.2,24.324,1.87
214.4,24.324,1.848
214.6,24.324,1.84
214.8,24.324,1.859
215,24.324,1.865
215.2,24.324,1.876
215.4,24.324,1.849
215.6,24.324,1.863
215.8,24.324,1.848
216,24.324,1.866
216.2,24.324,1.88
216.4,24.324,1.889
216.6,24.324,1.89
216.8,24.324,1.899
217,24.324,1.872
217.2,24.324,1.89
217.4,24.324,1.918
217.6,24.324,1.894
217.8,24.324,1.912
218,24.324,1.893
218.2,24.324,1.897
218.4,24.324,1.877
218.6,24.324,1.9
218.8,24.324,1.914
219,24.324,1.915
219.2,24.324,1.908
219.4,24.324,1.904
219.6,24.324,1.911
219.8,24.324,1.927
220,24.324,1.913
220.2,24.324,1.904
220.4,24.324,1.911
220.6,24.324,1.921
220.8,24.324,1.91
221,24.324,1.902
221.2,24.324,1.947
221.4,24.324,1.904
221.6,24.324,1.948
221.8,24.324,1.949
222,24.324,1.943
222.2,24.324,1.927
222.4,24.324,1.949
222.6,24.324,1.921
222.8,24.324,1.942
223,24.324,1.913
223.2,24.324,1.93
223.4,24.324,1.948
223.6,24.324,1.955
223.8,24.324,1.935
224,24.324,1.961
224.2,24.324,1.927
224.4,24.324,1.948
224.6,24.324,1.94
224.8,24.324,1.936
225,24.324,1.98
225.2,24.324,1.951
225.4,24.324,1.972
225.6,24.324,1.94
225.8,24.324,1.926
226,24.324,1.965
226.2,24.324,1.977
226.4,24.324,1.952
226.6,24.324,1.926
226.8,24.324,1.938
227,24.324,1.909
227.2,24.324,1.943
227.4,24.324,1.96
227.6,24.324,1.97
227.8,24.324,1.932
228,24.324,1.927
228.2,24.324,1.951
228.4,24.324,1.93
228.6,24.324,1.975
228.8,24.324,1.926
229,24.324,1.933
229.2,24.324,1.94
229.4,24.324,1.944
229.6,24.324,1.938
229.8,24.324,1.95
230,24.324,1.939
230.2,24.324,1.949
230.4,24.324,1.955
230.6,24.324,1.957
230.8,24.324,1.949
231,24.324,1.953
231.2,24.324,1.969
231.4,24.324,1.966
231.6,24.324,1.961
231.8,24.324,1.939
232,24.324,1.949
232.2,24.324,1.952
232.4,24.324,1.93
232.6,24.324,1.978
232.8,24.324,1.959
233,24.324,1.936
233.2,24.324,1.964
233.4,24.324,1.955
233.6,24.324,1.952
233.8,24.324,1.951
234,18.221,1.95
234.2,18.221,1.969
234.4,18.221,1.967
234.6,18.221,1.944
234.8,18.221,1.917
235,18.221,1.906
235.2,18.221,1.906
235.4,18.221,1.87
235.6,18.221,1.839
235.8,18.221,1.832
236,18.221,1.827
236.2,18.221,1.807
236.4,18.221,1.75
236.6,18.221,1.734
236.8,18.221,1.728
237,18.221,1.695
237.2,18.221,1.679
237.4,18.221,1.649
237.6,18.221,1.652
237.8,18.221,1.642
238,18.221,1.612
238.2,18.221,1.578
238.4,18.221,1.548
238.6,18.221,1.569
238.8,18.221,1.526
239,18.221,1.508
239.2,18.221,1.498
239.4,18.221,1.461
239.6,18.221,1.459
239.8,18.221,1.428
240,18.221,1.429
240.2,18.221,1.434
240.4,18.221,1.401
240.6,18.221,1.397
240.8,18.221,1.379
241,18.221,1.335
241.2,18.221,1.355
241.4,18.221,1.352
241.6,18.221,1.339
241.8,18.221,1.314
242,18.221,1.301
242.2,18.221,1.283
242.4,18.221,1.301
242.6,18.221,1.317
242.8,18.221,1.275
243,18.221,1.262
243.2,18.221,1.269
243.4,18.221,1.265
243.6,18.221,1.244
243.8,18.221,1.265
244,18.221,1.228
244.2,18.221,1.237
244.4,18.221,1.233
244.6,18.221,1.232
244.8,18.221,1.226
245,18.221,1.213
245.2,18.221,1.219
245.4,18.221,1.201
245.6,18.221,1.189
245.8,18.221,1.22
246,18.221,1.168
246.2,18.221,1.178
246.4,18.221,1.183
246.6,18.221,1.19
246.8,18.221,1.157
247,18.221,1.168
247.2,18.221,1.162
247.4,18.221,1.168
247.6,18.221,1.152
247.8,18.221,1.146
248,18.221,1.152
248.2,18.221,1.165
248.4,18.221,1.14
248.6,18.221,1.15
248.8,18.221,1.143
249,18.221,1.161
249.2,18.221,1.149
249.4,18.221,1.153
249.6,18.221,1.152
249.8,18.221,1.126
250,18.221,1.145
250.2,18.221,1.12
250.4,18.221,1.139
250.6,18.221,1.138
250.8,18.221,1.136
251,18.221,1.116
251.2,18.221,1.124
251.4,18.221,1.14
251.6,18.221,1.147
251.8,18.221,1.13
252,18.221,1.129
252.2,18.221,1.12
252.4,18.221,1.123
252.6,18.221,1.112
252.8,18.221,1.122
253,18.221,1.115
253.2,18.221,1.094
253.4,18.221,1.111
253.6,18.221,1.114
253.8,18.221,1.115
254,18.221,1.124
254.2,18.221,1.11
254.4,18.221,1.11
254.6,18.221,1.111
254.8,18.221,1.13
255,18.221,1.118
255.2,18.221,1.101
255.4,18.221,1.119
255.6,18.221,1.111
255.8,18.221,1.113
256,18.221,1.126
256.2,18.221,1.102
256.4,18.221,1.11
256.6,18.221,1.081
256.8,18.221,1.099
257,18.221,1.111
257.2,18.221,1.13
257.4,18.221,1.093
257.6,18.221,1.123
257.8,18.221,1.09
258,18.221,1.11
258.2,18.221,1.104
258.4,18.221,1.1
258.6,18.221,1.108
258.8,18.221,1.103
259,18.221,1.091
259.2,18.221,1.108
259.4,18.221,1.108
259.6,18.221,1.104
259.8,18.221,1.096
260,18.221,1.099
260.2,18.221,1.115
260.4,18.221,1.099
260.6,18.221,1.119
260.8,18.221,1.1
261,18.221,1.1
261.2,18.221,1.073
261.4,18.221,1.079
261.6,18.221,1.119
261.8,18.221,1.099
262,18.221,1.106
262.2,18.221,1.104
262.4,18.221,1.123
262.6,18.221,1.116
262.8,18.221,1.116
263,18.221,1.111
263.2,18.221,1.089
263.4,18.221,1.087
263.6,18.221,1.109
263.8,18.221,1.111
264,18.221,1.114
264.2,18.221,1.097
264.4,18.221,1.101
264.6,18.221,1.099
264.8,18.221,1.075
265,18.221,1.115
265.2,21.761,1.097
265.4,21.761,1.108
265.6,21.761,1.118
265.8,21.761,1.099
266,21.761,1.108
266.2,21.761,1.139
266.4,21.761,1.146
266.6,21.761,1.152
266.8,21.761,1.158
267,21.761,1.162
267.2,21.761,1.166
267.4,21.761,1.204
267.6,21.761,1.2
267.8,21.761,1.214
268,21.761,1.197
268.2,21.761,1.228
268.4,21.761,1.225
268.6,21.761,1.251
268.8,21.761,1.236
269,21.761,1.281
269.2,21.761,1.3
269.4,21.761,1.284
269.6,21.761,1.291
269.8,21.761,1.302
270,21.761,1.335
270.2,21.761,1.325
270.4,21.761,1.318
270.6,21.761,1.345
270.8,21.761,1.364
271,21.761,1.369
271.2,21.761,1.359
271.4,21.761,1.382
271.6,21.761,1.367
271.8,21.761,1.38
272,21.761,1.381
272.2,21.761,1.411
272.4,21.761,1.401
272.6,21.761,1.411
272.8,21.761,1.41
273,21.761,1.414
273.2,21.761,1.44
273.4,21.761,1.432
273.6,21.761,1.436
273.8,21.761,1.451
274,21.761,1.463
274.2,21.761,1.45
274.4,21.761,1.457
274.6,21.761,1.446
274.8,21.761,1.466
275,21.761,1.489
275.2,21.761,1.471
275.4,21.761,1.486
275.6,21.761,1.479
275.8,21.761,1.47
276,21.761,1.491
276.2,21.761,1.49
276.4,21.761,1.475
276.6,21.761,1.485
276.8,21.761,1.479
277,21.761,1.502
277.2,21.761,1.479
277.4,21.761,1.478
277.6,21.761,1.521
277.8,21.761,1.509
278,21.761,1.499
278.2,21.761,1.504
278.4,21.761,1.51
278.6,21.761,1.536
278.8,21.761,1.519
279,21.761,1.532
279.2,21.761,1.527
279.4,21.761,1.538
279.6,21.761,1.527
279.8,21.761,1.554
280,21.761,1.522
280.2,21.761,1.56
280.4,21.761,1.536
280.6,21.761,1.543
280.8,21.761,1.542
281,21.761,1.537
281.2,21.761,1.543
281.4,21.761,1.534
281.6,21.761,1.535
281.8,21.761,1.535
282,21.761,1.521
282.2,21.761,1.556
282.4,21.761,1.537
282.6,21.761,1.553
282.8,21.761,1.541
283,21.761,1.532
283.2,21.761,1.566
283.4,21.761,1.545
283.6,21.761,1.53
283.8,21.761,1.55
284,21.761,1.538
284.2,21.761,1.527
284.4,21.761,1.531
284.6,21.761,1.543
284.8,21.761,1.543
285,21.761,1.561
285.2,21.761,1.567
285.4,21.761,1.544
285.6,21.761,1.561
285.8,21.761,1.552
286,21.761,1.578
286.2,21.761,1.564
286.4,21.761,1.563
286.6,21.761,1.548
286.8,21.761,1.537
287,21.761,1.555
287.2,21.761,1.539
287.4,21.761,1.556
287.6,21.761,1.564
287.8,21.761,1.56
288,21.761,1.562
288.2,21.761,1.564
288.4,21.761,1.557
288.6,21.761,1.547
288.8,21.761,1.562
289,21.761,1.56
289.2,21.761,1.543
289.4,21.761,1.561
289.6,21.761,1.559
289.8,21.761,1.592
290,21.761,1.533
290.2,21.761,1.566
290.4,21.761,1.585
290.6,21.761,1.543
290.8,21.761,1.54
291,21.761,1.527
291.2,21.761,1.55
291.4,21.761,1.561
291.6,21.761,1.565
291.8,21.761,1.558
292,21.761,1.569
292.2,21.761,1.598
292.4,21.761,1.561
292.6,21.761,1.565
292.8,21.761,1.557
293,21.761,1.538
293.2,21.761,1.585
293.4,21.761,1.549
293.6,21.761,1.566
293.8,21.761,1.594
294,21.761,1.546
294.2,21.761,1.533
294.4,21.761,1.559
294.6,21.761,1.578
294.8,21.761,1.555
295,21.761,1.549
295.2,21.761,1.561
295.4,21.761,1.578
295.6,21.761,1.563
295.8,21.761,1.568
296,21.761,1.558
296.2,21.761,1.556
296.4,18.862,1.584
296.6,18.862,1.582
296.8,18.862,1.555
297,18.862,1.561
297.2,18.862,1.56
297.4,18.862,1.542
297.6,18.862,1.557
297.8,18.862,1.527
298,18.862,1.523
298.2,18.862,1.504
298.4,18.862,1.509
298.6,18.862,1.504
298.8,18.862,1.448
299,18.862,1.475
299.2,18.862,1.456
299.4,18.862,1.438
299.6,18.862,1.455
299.8,18.862,1.448
300,18.862,1.417
300.2,18.862,1.406
300.4,18.862,1.416
300.6,18.862,1.387
300.8,18.862,1.392
301,18.862,1.37
301.2,18.862,1.369
301.4,18.862,1.375
301.6,18.862,1.341
301.8,18.862,1.356
302,18.862,1.349
302.2,18.862,1.326
302.4,18.862,1.358
302.6,18.862,1.32
302.8,18.862,1.304
303,18.862,1.301
303.2,18.862,1.305
303.4,18.862,1.294
303.6,18.862,1.311
303.8,18.862,1.293
304,18.862,1.284
304.2,18.862,1.261
304.4,18.862,1.259
304.6,18.862,1.274
304.8,18.862,1.287
305,18.862,1.273
305.2,18.862,1.251
305.4,18.862,1.259
305.6,18.862,1.241
305.8,18.862,1.24
306,18.862,1.232
306.2,18.862,1.27
306.4,18.862,1.244
306.6,18.862,1.245
306.8,18.862,1.24
307,18.862,1.232
307.2,18.862,1.245
307.4,18.862,1.248
307.6,18.862,1.229
307.8,18.862,1.241
308,18.862,1.212
308.2,18.862,1.237
308.4,18.862,1.212
308.6,18.862,1.224
308.8,18.862,1.206
309,18.862,1.22
309.2,18.862,1.205
309.4,18.862,1.213
309.6,18.862,1.229
309.8,18.862,1.214
310,18.862,1.218
310.2,18.862,1.213
310.4,18.862,1.203
310.6,18.862,1.204
310.8,18.862,1.203
311,18.862,1.208
311.2,18.862,1.198
311.4,18.862,1.214
311.6,18.862,1.186
311.8,18.862,1.194
312,18.862,1.201
312.2,18.862,1.188
312.4,18.862,1.176
312.6,18.862,1.212
312.8,18.862,1.183
313,18.862,1.206
313.2,18.862,1.197
313.4,18.862,1.203
313.6,18.862,1.176
313.8,18.862,1.197
314,18.862,1.209
314.2,18.862,1.196
314.4,18.862,1.19
314.6,18.862,1.176
314.8,18.862,1.198
315,18.862,1.191
315.2,18.862,1.185
315.4,18.862,1.179
315.6,18.862,1.189
315.8,18.862,1.195
316,18.862,1.185
316.2,18.862,1.191
316.4,18.862,1.188
316.6,18.862,1.181
316.8,18.862,1.196
317,18.862,1.206
317.2,18.862,1.174
317.4,18.862,1.206
317.6,18.862,1.191
317.8,18.862,1.154
318,18.862,1.18
318.2,18.862,1.193
318.4,18.862,1.165
318.6,18.862,1.189
318.8,18.862,1.162
319,18.862,1.175
319.2,18.862,1.202
319.4,18.862,1.19
319.6,18.862,1.203
319.8,18.862,1.167
320,18.862,1.174
320.2,18.862,1.17
320.4,18.862,1.165
320.6,18.862,1.166
320.8,18.862,1.171
321,18.862,1.19
321.2,18.862,1.19
321.4,18.862,1.167
321.6,18.862,1.167
321.8,18.862,1.19
322,18.862,1.174
322.2,18.862,1.173
322.4,18.862,1.167
322.6,18.862,1.195
322.8,18.862,1.186
323,18.862,1.217
323.2,18.862,1.174
323.4,18.862,1.187
323.6,18.862,1.159
323.8,18.862,1.193
324,18.862,1.179
324.2,18.862,1.191
324.4,18.862,1.18
324.6,18.862,1.195
324.8,18.862,1.179
325,18.862,1.179
325.2,18.862,1.171
325.4,18.862,1.181
325.6,18.862,1.172
325.8,18.862,1.197
326,18.862,1.177
326.2,18.862,1.173
326.4,18.862,1.159
326.6,18.862,1.173
326.8,18.862,1.182
327,18.862,1.17
327.2,18.862,1.202
327.4,18.862,1.195
327.6,18.862,1.151
327.8,18.862,1.193
328,18.862,1.167
328.2,18.862,1.173
328.4,18.862,1.196
328.6,18.862,1.181
328.8,18.862,1.169
329,18.862,1.18
329.2,18.862,1.162
329.4,18.862,1.17
329.6,18.862,1.174
329.8,18.862,1.193
330,18.862,1.179
330.2,18.862,1.189
330.4,18.862,1.168
330.6,18.862,1.196
330.8,18.862,1.179
331,18.862,1.173
331.2,18.862,1.154
331.4,18.862,1.172
331.6,18.862,1.181
331.8,18.862,1.196
332,18.862,1.198
332.2,18.862,1.16
332.4,18.862,1.172
332.6,18.862,1.147
332.8,18.862,1.168
333,18.862,1.193
333.2,18.862,1.183
333.4,18.862,1.207
333.6,18.862,1.182
333.8,18.862,1.185
334,18.862,1.166
334.2,18.862,1.183
334.4,18.862,1.177
334.6,18.862,1.176
334.8,18.862,1.198
335,18.862,1.174
335.2,18.862,1.155
335.4,18.862,1.176
335.6,18.862,1.176
335.8,18.862,1.169
336,18.862,1.192
336.2,18.862,1.176
336.4,18.862,1.188
336.6,18.862,1.178
336.8,18.862,1.178
337,18.862,1.16
337.2,18.862,1.177
337.4,18.862,1.171
337.6,18.862,1.182
337.8,18.862,1.153
338,18.862,1.201
338.2,18.862,1.169
338.4,18.862,1.196
338.6,18.862,1.17
338.8,18.862,1.173
339,18.862,1.172
339.2,18.862,1.177
339.4,18.862,1.171
339.6,18.862,1.174
339.8,18.862,1.178
340,18.862,1.181
340.2,18.862,1.194
340.4,18.862,1.167
340.6,18.862,1.16
340.8,18.862,1.169
341,18.862,1.18
341.2,18.862,1.193
341.4,18.862,1.157
341.6,18.862,1.161
341.8,18.862,1.147
342,18.862,1.148
342.2,18.862,1.181
342.4,18.862,1.169
342.6,18.862,1.177
342.8,18.862,1.186
343,18.862,1.169
343.2,24.717,1.199
343.4,24.717,1.179
343.6,24.717,1.203
343.8,24.717,1.186
344,24.717,1.209
344.2,24.717,1.233
344.4,24.717,1.234
344.6,24.717,1.251
344.8,24.717,1.268
345,24.717,1.275
345.2,24.717,1.28
345.4,24.717,1.303
345.6,24.717,1.324
345.8,24.717,1.351
346,24.717,1.381
346.2,24.717,1.369
346.4,24.717,1.404
346.6,24.717,1.441
346.8,24.717,1.447
347,24.717,1.474
347.2,24.717,1.472
347.4,24.717,1.48
347.6,24.717,1.517
347.8,24.717,1.516
348,24.717,1.524
348.2,24.717,1.56
348.4,24.717,1.603
348.6,24.717,1.592
348.8,24.717,1.616
349,24.717,1.651
349.2,24.717,1.64
349.4,24.717,1.665
349.6,24.717,1.671
349.8,24.717,1.657
350,24.717,1.678
350.2,24.717,1.726
350.4,24.717,1.708
350.6,24.717,1.728
350.8,24.717,1.711
351,24.717,1.755
351.2,24.717,1.754
351.4,24.717,1.776
351.6,24.717,1.806
351.8,24.717,1.751
352,24.717,1.776
352.2,24.717,1.823
352.4,24.717,1.816
352.6,24.717,1.794
352.8,24.717,1.84
353,24.717,1.818
353.2,24.717,1.834
353.4,24.717,1.838
353.6,24.717,1.857
353.8,24.717,1.866
354,24.717,1.871
354.2,24.717,1.886
354.4,24.717,1.881
354.6,24.717,1.892
354.8,24.717,1.912
355,24.717,1.899
355.2,24.717,1.907
355.4,24.717,1.907
355.6,24.717,1.901
355.8,24.717,1.879
356,24.717,1.911
356.2,24.717,1.918
356.4,24.717,1.919
356.6,24.717,1.907
356.8,24.717,1.935
357,24.717,1.923
357.2,24.717,1.943
357.4,24.717,1.948
357.6,24.717,1.961
357.8,24.717,1.932
358,24.717,1.953
358.2,24.717,1.938
358.4,24.717,1.945
358.6,24.717,1.965
358.8,19.812,1.959
359,19.812,1.954
359.2,19.812,1.966
359.4,19.812,1.96
359.6,19.812,1.969
359.8,19.812,1.929
360,19.812,1.929
360.2,19.812,1.921
360.4,19.812,1.894
360.6,19.812,1.91
360.8,19.812,1.867
361,19.812,1.863
361.2,19.812,1.848
361.4,19.812,1.824
361.6,19.812,1.81
361.8,19.812,1.774
362,19.812,1.755
362.2,19.812,1.763
362.4,19.812,1.744
362.6,19.812,1.717
362.8,19.812,1.72
363,19.812,1.669
363.2,19.812,1.69
363.4,19.812,1.67
363.6,19.812,1.654
363.8,19.812,1.627
364,19.812,1.641
364.2,19.812,1.614
364.4,19.812,1.574
364.6,19.812,1.58
364.8,19.812,1.541
365,19.812,1.574
365.2,19.812,1.551
365.4,19.812,1.547
365.6,19.812,1.526
365.8,19.812,1.511
366,19.812,1.523
366.2,19.812,1.517
366.4,19.812,1.482
366.6,19.812,1.501
366.8,19.812,1.47
367,19.812,1.453
367.2,19.812,1.442
367.4,19.812,1.445
367.6,19.812,1.443
367.8,19.812,1.46
368,19.812,1.439
368.2,19.812,1.471
368.4,19.812,1.419
368.6,19.812,1.4
368.8,19.812,1.392
369,19.812,1.439
369.2,19.812,1.411
369.4,19.812,1.386
369.6,19.812,1.383
369.8,19.812,1.394
370,19.812,1.38
370.2,19.812,1.408
370.4,19.812,1.378
370.6,19.812,1.362
370.8,19.812,1.375
371,19.812,1.37
371.2,19.812,1.389
371.4,19.812,1.373
371.6,19.812,1.345
371.8,19.812,1.354
372,19.812,1.338
372.2,19.812,1.344
372.4,19.812,1.356
372.6,19.812,1.328
372.8,19.812,1.362
373,19.812,1.375
373.2,19.812,1.326
373.4,19.812,1.338
373.6,19.812,1.362
373.8,19.812,1.32
374,19.812,1.324
374.2,19.812,1.328
374.4,19.812,1.329
374.6,19.812,1.345
374.8,19.812,1.34
375,19.812,1.33
375.2,19.812,1.304
375.4,19.812,1.321
375.6,19.812,1.329
375.8,19.812,1.315
376,19.812,1.322
376.2,19.812,1.336
376.4,19.812,1.35
376.6,19.812,1.318
376.8,19.812,1.295
377,19.812,1.308
377.2,19.812,1.328
377.4,19.812,1.335
377.6,19.812,1.304
377.8,19.812,1.325
378,19.812,1.317
378.2,19.812,1.314
378.4,19.812,1.316
378.6,19.812,1.303
378.8,19.812,1.315
379,19.812,1.301
379.2,19.812,1.296
379.4,19.812,1.297
379.6,19.812,1.33
379.8,19.812,1.299
380,19.812,1.33
380.2,19.812,1.32
380.4,19.812,1.302
380.6,19.812,1.311
380.8,19.812,1.313
381,19.812,1.3
381.2,19.812,1.289
381.4,19.812,1.295
381.6,19.812,1.303
381.8,19.812,1.31
382,19.812,1.313
382.2,19.812,1.325
382.4,19.812,1.303
382.6,19.812,1.314
382.8,19.812,1.326
383,19.812,1.281
383.2,19.812,1.299
383.4,19.812,1.258
383.6,19.812,1.281
383.8,19.812,1.284
384,19.812,1.316
384.2,19.812,1.315
384.4,19.812,1.312
384.6,19.812,1.294
384.8,19.812,1.296
385,19.812,1.286
385.2,19.812,1.309
385.4,19.812,1.298
385.6,19.812,1.287
385.8,19.812,1.299
386,19.812,1.282
386.2,19.812,1.295
386.4,19.812,1.294
386.6,19.812,1.306
386.8,19.812,1.331
387,19.812,1.295
387.2,19.812,1.288
387.4,19.812,1.313
387.6,19.812,1.303
387.8,19.812,1.29
388,19.812,1.308
388.2,19.812,1.312
388.4,19.812,1.282
388.6,19.812,1.306
388.8,19.812,1.332
389,19.812,1.309
389.2,19.812,1.309
389.4,19.812,1.302
389.6,19.812,1.307
389.8,19.812,1.32
390,19.812,1.313
390.2,19.812,1.302
390.4,19.812,1.304
390.6,19.812,1.288
390.8,19.812,1.311
391,19.812,1.285
391.2,19.812,1.271
391.4,19.812,1.303
391.6,19.812,1.303
391.8,19.812,1.273
392,19.812,1.299
392.2,19.812,1.289
392.4,19.812,1.274
392.6,19.812,1.302
392.8,19.812,1.306
393,19.812,1.286
393.2,19.812,1.306
393.4,19.812,1.305
393.6,19.812,1.283
393.8,19.812,1.314
394,19.812,1.3
394.2,19.812,1.301
394.4,19.812,1.287
394.6,19.812,1.307
394.8,19.812,1.28
395,19.812,1.304
395.2,19.812,1.307
395.4,19.812,1.283
395.6,19.812,1.285
395.8,19.812,1.29
396,19.812,1.308
396.2,19.812,1.323
396.4,19.812,1.3
396.6,19.812,1.286
396.8,19.812,1.296
397,19.812,1.284
397.2,19.812,1.303
397.4,19.812,1.292
397.6,19.812,1.295
397.8,19.812,1.284
398,19.812,1.306
398.2,19.812,1.325
398.4,19.812,1.312
398.6,19.812,1.289
398.8,19.812,1.319
399,19.812,1.288
399.2,19.812,1.275
399.4,19.812,1.288
399.6,19.812,1.297
399.8,19.812,1.284
400,19.812,1.313
400.2,19.812,1.292
400.4,19.812,1.285
400.6,19.812,1.297
400.8,19.812,1.306
401,19.812,1.297
401.2,19.812,1.298
401.4,19.812,1.297
401.6,19.812,1.304
401.8,19.812,1.325
402,19.812,1.314
402.2,19.812,1.286
402.4,19.812,1.29
402.6,19.812,1.299
402.8,19.812,1.27
403,19.812,1.314
403.2,19.812,1.304
403.4,19.812,1.302
403.6,19.812,1.308
403.8,19.812,1.307
404,19.812,1.301
404.2,19.812,1.277
404.4,19.812,1.307
404.6,19.812,1.315
404.8,19.812,1.288
405,19.812,1.332
405.2,19.812,1.289
405.4,19.812,1.323
405.6,22.631,1.289
405.8,22.631,1.326
406,22.631,1.299
406.2,22.631,1.308
406.4,22.631,1.318
406.6,22.631,1.303
406.8,22.631,1.298
407,22.631,1.355
407.2,22.631,1.305
407.4,22.631,1.339
407.6,22.631,1.362
407.8,22.631,1.398
408,22.631,1.365
408.2,22.631,1.411
408.4,22.631,1.391
408.6,22.631,1.405
408.8,22.631,1.403
409,22.631,1.415
409.2,22.631,1.441
409.4,22.631,1.427
409.6,22.631,1.47
409.8,22.631,1.454
410,22.631,1.453
410.2,22.631,1.444
410.4,22.631,1.475
410.6,22.631,1.496
410.8,22.631,1.515
411,22.631,1.504
411.2,22.631,1.504
411.4,22.631,1.503
411.6,22.631,1.527
411.8,22.631,1.531
412,22.631,1.519
412.2,22.631,1.537
412.4,22.631,1.565
412.6,22.631,1.573
412.8,22.631,1.546
413,22.631,1.544
413.2,22.631,1.558
413.4,22.631,1.581
413.6,22.631,1.589
413.8,22.631,1.573
414,22.631,1.613
414.2,22.631,1.585
414.4,22.631,1.584
414.6,22.631,1.593
414.8,22.631,1.601
415,22.631,1.601
415.2,22.631,1.598
415.4,22.631,1.623
415.6,22.631,1.61
415.8,22.631,1.611
416,22.631,1.586
416.2,22.631,1.626
416.4,22.631,1.624
416.6,22.631,1.63
416.8,22.631,1.634
417,22.631,1.627
417.2,22.631,1.653
417.4,22.631,1.633
417.6,22.631,1.624
417.8,22.631,1.637
418,22.631,1.628
418.2,22.631,1.643
418.4,22.631,1.638
418.6,22.631,1.657
418.8,22.631,1.659
419,22.631,1.659
419.2,22.631,1.662
419.4,22.631,1.676
419.6,22.631,1.661
419.8,22.631,1.665
420,22.631,1.676
420.2,22.631,1.643
420.4,22.631,1.645
420.6,22.631,1.658
420.8,22.631,1.66
421,22.631,1.667
421.2,20.146,1.673
421.4,20.146,1.665
421.6,20.146,1.673
421.8,20.146,1.673
422,20.146,1.664
422.2,20.146,1.657
422.4,20.146,1.668
422.6,20.146,1.671
422.8,20.146,1.651
423,20.146,1.631
423.2,20.146,1.611
423.4,20.146,1.618
423.6,20.146,1.605
423.8,20.146,1.59
424,20.146,1.588
424.2,20.146,1.582
424.4,20.146,1.579
424.6,20.146,1.547
424.8,20.146,1.559
425,20.146,1.545
425.2,20.146,1.558
425.4,20.146,1.5
425.6,20.146,1.521
425.8,20.146,1.521
426,20.146,1.507
426.2,20.146,1.527
426.4,20.146,1.498
426.6,20.146,1.49
426.8,20.146,1.473
427,20.146,1.491
427.2,20.146,1.473
427.4,20.146,1.495
427.6,20.146,1.472
427.8,20.146,1.455
428,20.146,1.469
428.2,20.146,1.428
428.4,20.146,1.447
428.6,20.146,1.457
428.8,20.146,1.432
429,20.146,1.44
429.2,20.146,1.433
429.4,20.146,1.427
429.6,20.146,1.422
429.8,20.146,1.401
430,20.146,1.426
430.2,20.146,1.442
430.4,20.146,1.407
430.6,20.146,1.397
430.8,20.146,1.395
431,20.146,1.431
431.2,20.146,1.402
431.4,20.146,1.399
431.6,20.146,1.418
431.8,20.146,1.398
432,20.146,1.405
432.2,20.146,1.382
432.4,20.146,1.409
432.6,20.146,1.379
432.8,20.146,1.367
433,20.146,1.392
433.2,20.146,1.362
433.4,20.146,1.393
433.6,20.146,1.384
433.8,20.146,1.373
434,20.146,1.38
434.2,20.146,1.362
434.4,20.146,1.349
434.6,20.146,1.385
434.8,20.146,1.385
435,20.146,1.341
435.2,20.146,1.342
435.4,20.146,1.353
435.6,20.146,1.384
435.8,20.146,1.378
436,20.146,1.364
436.2,20.146,1.337
436.4,20.146,1.366
436.6,20.146,1.371
436.8,23.147,1.356
437,23.147,1.361
437.2,23.147,1.357
437.4,23.147,1.355
437.6,23.147,1.375
437.8,23.147,1.387
438,23.147,1.389
438.2,23.147,1.363
438.4,23.147,1.401
438.6,23.147,1.435
438.8,23.147,1.443
439,23.147,1.419
439.2,23.147,1.436
439.4,23.147,1.433
439.6,23.147,1.456
439.8,23.147,1.489
440,23.147,1.46
440.2,23.147,1.481
440.4,23.147,1.503
440.6,23.147,1.535
440.8,23.147,1.523
441,23.147,1.515
441.2,23.147,1.529
441.4,23.147,1.522
441.6,23.147,1.546
441.8,23.147,1.564
442,23.147,1.553
442.2,23.147,1.565
442.4,23.147,1.59
442.6,23.147,1.583
442.8,23.147,1.619
443,23.147,1.603
443.2,23.147,1.579
443.4,23.147,1.641
443.6,23.147,1.617
443.8,23.147,1.632
444,23.147,1.638
444.2,23.147,1.626
444.4,23.147,1.626
444.6,23.147,1.654
444.8,23.147,1.641
445,23.147,1.664
445.2,23.147,1.654
445.4,23.147,1.662
445.6,23.147,1.66
445.8,23.147,1.69
446,23.147,1.698
446.2,23.147,1.684
446.4,23.147,1.664
446.6,23.147,1.674
446.8,23.147,1.67
447,23.147,1.703
447.2,23.147,1.694
447.4,23.147,1.691
447.6,23.147,1.696
447.8,23.147,1.689
448,23.147,1.725
448.2,23.147,1.713
448.4,23.147,1.707
448.6,23.147,1.722
448.8,23.147,1.726
449,23.147,1.701
449.2,23.147,1.698
449.4,23.147,1.748
449.6,23.147,1.72
449.8,23.147,1.695
450,23.147,1.716
450.2,23.147,1.711
450.4,23.147,1.708
450.6,23.147,1.744
450.8,23.147,1.739
451,23.147,1.729
451.2,23.147,1.758
451.4,23.147,1.714
451.6,23.147,1.725
451.8,23.147,1.735
452,23.147,1.75
452.2,23.147,1.748
452.4,23.147,1.76
452.6,23.147,1.749
452.8,23.147,1.75
453,23.147,1.765
453.2,23.147,1.725
453.4,23.147,1.75
453.6,23.147,1.739
453.8,23.147,1.75
454,23.147,1.754
454.2,23.147,1.789
454.4,23.147,1.771
454.6,23.147,1.759
454.8,23.147,1.754
455,23.147,1.757
455.2,23.147,1.759
455.4,23.147,1.764
455.6,23.147,1.756
455.8,23.147,1.767
456,23.147,1.742
456.2,23.147,1.759
456.4,23.147,1.764
456.6,23.147,1.771
456.8,23.147,1.767
457,23.147,1.773
457.2,23.147,1.76
457.4,23.147,1.774
457.6,23.147,1.748
457.8,23.147,1.748
458,23.147,1.746
458.2,23.147,1.775
458.4,23.147,1.752
458.6,23.147,1.775
458.8,23.147,1.747
459,23.147,1.755
459.2,23.147,1.761
459.4,23.147,1.749
459.6,23.147,1.749
459.8,23.147,1.76
460,23.147,1.774
460.2,23.147,1.753
460.4,23.147,1.77
460.6,23.147,1.771
460.8,23.147,1.766
461,23.147,1.75
461.2,23.147,1.763
461.4,23.147,1.798
461.6,23.147,1.749
461.8,23.147,1.757
462,23.147,1.758
462.2,23.147,1.757
462.4,23.147,1.782
462.6,23.147,1.761
462.8,23.147,1.754
463,23.147,1.747
463.2,23.147,1.777
463.4,23.147,1.746
463.6,23.147,1.784
463.8,23.147,1.783
464,23.147,1.724
464.2,23.147,1.769
464.4,23.147,1.768
464.6,23.147,1.768
464.8,23.147,1.777
465,23.147,1.756
465.2,23.147,1.815
465.4,23.147,1.775
465.6,23.147,1.75
465.8,23.147,1.772
466,23.147,1.771
466.2,23.147,1.78
466.4,23.147,1.781
466.6,23.147,1.754
466.8,23.147,1.785
467,23.147,1.783
467.2,23.147,1.767
467.4,23.147,1.765
467.6,23.147,1.765
467.8,23.147,1.759
468,18.192,1.769
468.2,18.192,1.758
468.4,18.192,1.766
468.6,18.192,1.756
468.8,18.192,1.779
469,18.192,1.724
469.2,18.192,1.726
469.4,18.192,1.72
469.6,18.192,1.709
469.8,18.192,1.657
470,18.192,1.669
470.2,18.192,1.653
470.4,18.192,1.64
470.6,18.192,1.602
470.8,18.192,1.597
471,18.192,1.578
471.2,18.192,1.552
471.4,18.192,1.536
471.6,18.192,1.507
471.8,18.192,1.501
472,18.192,1.493
472.2,18.192,1.474
472.4,18.192,1.48
472.6,18.192,1.434
472.8,18.192,1.425
473,18.192,1.41
473.2,18.192,1.393
473.4,18.192,1.399
473.6,18.192,1.377
473.8,18.192,1.368
474,18.192,1.344
474.2,18.192,1.33
474.4,18.192,1.346
474.6,18.192,1.318
474.8,18.192,1.322
475,18.192,1.311
475.2,18.192,1.317
475.4,18.192,1.295
475.6,18.192,1.292
475.8,18.192,1.299
476,18.192,1.266
476.2,18.192,1.26
476.4,18.192,1.255
476.6,18.192,1.233
476.8,18.192,1.252
477,18.192,1.24
477.2,18.192,1.21
477.4,18.192,1.233
477.6,18.192,1.217
477.8,18.192,1.234
478,18.192,1.21
478.2,18.192,1.214
478.4,18.192,1.192
478.6,18.192,1.201
478.8,18.192,1.201
479,18.192,1.187
479.2,18.192,1.174
479.4,18.192,1.199
479.6,18.192,1.183
479.8,18.192,1.156
480,18.192,1.167
480.2,18.192,1.177
480.4,18.192,1.143
480.6,18.192,1.151
480.8,18.192,1.162
481,18.192,1.18
481.2,18.192,1.168
481.4,18.192,1.161
481.6,18.192,1.145
481.8,18.192,1.15
482,18.192,1.144
482.2,18.192,1.158
482.4,18.192,1.173
482.6,18.192,1.154
482.8,18.192,1.13
483,18.192,1.135
483.2,18.192,1.128
483.4,18.192,1.135
483.6,21.778,1.142
483.8,21.778,1.117
484,21.778,1.152
484.2,21.778,1.127
484.4,21.778,1.127
484.6,21.778,1.127
484.8,21.778,1.157
485,21.778,1.153
485.2,21.778,1.175
485.4,21.778,1.165
485.6,21.778,1.219
485.8,21.778,1.212
486,21.778,1.214
486.2,21.778,1.227
486.4,21.778,1.238
486.6,21.778,1.243
486.8,21.778,1.255
487,21.778,1.264
487.2,21.778,1.29
487.4,21.778,1.285
487.6,21.778,1.295
487.8,21.778,1.29
488,21.778,1.281
488.2,21.778,1.327
488.4,21.778,1.359
488.6,21.778,1.336
488.8,21.778,1.35
489,21.778,1.36
489.2,21.778,1.345
489.4,21.778,1.354
489.6,21.778,1.392
489.8,21.778,1.37
490,21.778,1.402
490.2,21.778,1.397
490.4,21.778,1.408
490.6,21.778,1.393
490.8,21.778,1.436
491,21.778,1.394
491.2,21.778,1.423
491.4,21.778,1.431
491.6,21.778,1.446
491.8,21.778,1.447
492,21.778,1.434
492.2,21.778,1.466
492.4,21.778,1.451
492.6,21.778,1.473
492.8,21.778,1.475
493,21.778,1.469
493.2,21.778,1.484
493.4,21.778,1.44
493.6,21.778,1.493
493.8,21.778,1.511
494,21.778,1.477
494.2,21.778,1.463
494.4,21.778,1.48
494.6,21.778,1.494
494.8,21.778,1.481
495,21.778,1.486
495.2,21.778,1.519
495.4,21.778,1.491
495.6,21.778,1.507
495.8,21.778,1.526
496,21.778,1.51
496.2,21.778,1.511
496.4,21.778,1.517
496.6,21.778,1.511
496.8,21.778,1.527
497,21.778,1.523
497.2,21.778,1.53
497.4,21.778,1.531
497.6,21.778,1.511
497.8,21.778,1.542
498,21.778,1.532
498.2,21.778,1.525
498.4,21.778,1.535
498.6,21.778,1.53
498.8,21.778,1.536
499,21.778,1.546
499.2,20.154,1.559
499.4,20.154,1.524
499.6,20.154,1.526
499.8,20.154,1.559
500,20.154,1.545
500.2,20.154,1.552
500.4,20.154,1.526
500.6,20.154,1.525
500.8,20.154,1.508
501,20.154,1.505
501.2,20.154,1.517
501.4,20.154,1.49
501.6,20.154,1.493
501.8,20.154,1.491
502,20.154,1.496
502.2,20.154,1.503
502.4,20.154,1.486
502.6,20.154,1.503
502.8,20.154,1.479
503,20.154,1.47
503.2,20.154,1.441
503.4,20.154,1.456
503.6,20.154,1.452
503.8,20.154,1.453
504,20.154,1.465
504.2,20.154,1.418
504.4,20.154,1.459
504.6,20.154,1.443
504.8,20.154,1.411
505,20.154,1.423
505.2,20.154,1.428
505.4,20.154,1.418
505.6,20.154,1.417
505.8,20.154,1.437
506,20.154,1.405
506.2,20.154,1.407
506.4,20.154,1.409
506.6,20.154,1.392
506.8,20.154,1.41
507,20.154,1.398
507.2,20.154,1.388
507.4,20.154,1.382
507.6,20.154,1.41
507.8,20.154,1.365
508,20.154,1.391
508.2,20.154,1.382
508.4,20.154,1.377
508.6,20.154,1.386
508.8,20.154,1.357
509,20.154,1.369
509.2,20.154,1.389
509.4,20.154,1.403
509.6,20.154,1.393
509.8,20.154,1.362
510,20.154,1.389
510.2,20.154,1.379
510.4,20.154,1.359
510.6,20.154,1.369
510.8,20.154,1.353
511,20.154,1.375
511.2,20.154,1.346
511.4,20.154,1.365
511.6,20.154,1.374
511.8,20.154,1.383
512,20.154,1.371
512.2,20.154,1.388
512.4,20.154,1.367
512.6,20.154,1.353
512.8,20.154,1.354
513,20.154,1.341
513.2,20.154,1.347
513.4,20.154,1.374
513.6,20.154,1.366
513.8,20.154,1.361
514,20.154,1.374
514.2,20.154,1.367
514.4,20.154,1.358
514.6,20.154,1.35
514.8,20.154,1.363
515,20.154,1.349
515.2,20.154,1.348
515.4,20.154,1.358
515.6,20.154,1.346
515.8,20.154,1.337
516,20.154,1.36
516.2,20.154,1.348
516.4,20.154,1.352
516.6,20.154,1.344
516.8,20.154,1.351
517,20.154,1.371
517.2,20.154,1.363
517.4,20.154,1.359
517.6,20.154,1.349
517.8,20.154,1.341
518,20.154,1.332
518.2,20.154,1.348
518.4,20.154,1.327
518.6,20.154,1.354
518.8,20.154,1.355
519,20.154,1.35
519.2,20.154,1.321
519.4,20.154,1.345
519.6,20.154,1.343
519.8,20.154,1.359
520,20.154,1.339
520.2,20.154,1.381
520.4,20.154,1.352
520.6,20.154,1.355
520.8,20.154,1.342
521,20.154,1.345
521.2,20.154,1.355
521.4,20.154,1.389
521.6,20.154,1.339
521.8,20.154,1.363
522,20.154,1.354
522.2,20.154,1.363
522.4,20.154,1.348
522.6,20.154,1.342
522.8,20.154,1.345
523,20.154,1.364
523.2,20.154,1.361
523.4,20.154,1.335
523.6,20.154,1.351
523.8,20.154,1.32
524,20.154,1.335
524.2,20.154,1.355
524.4,20.154,1.343
524.6,20.154,1.365
524.8,20.154,1.358
525,20.154,1.347
525.2,20.154,1.389
525.4,20.154,1.362
525.6,20.154,1.347
525.8,20.154,1.331
526,20.154,1.361
526.2,20.154,1.353
526.4,20.154,1.322
526.6,20.154,1.338
526.8,20.154,1.356
527,20.154,1.351
527.2,20.154,1.359
527.4,20.154,1.348
527.6,20.154,1.366
527.8,20.154,1.356
528,20.154,1.365
528.2,20.154,1.353
528.4,20.154,1.346
528.6,20.154,1.337
528.8,20.154,1.344
529,20.154,1.351
529.2,20.154,1.335
529.4,20.154,1.365
529.6,20.154,1.349
529.8,20.154,1.34
530,20.154,1.326
530.2,20.154,1.346
530.4,24.553,1.339
530.6,24.553,1.341
530.8,24.553,1.36
531,24.553,1.34
531.2,24.553,1.362
531.4,24.553,1.384
531.6,24.553,1.386
531.8,24.553,1.371
532,24.553,1.425
532.2,24.553,1.445
532.4,24.553,1.425
532.6,24.553,1.463
532.8,24.553,1.442
533,24.553,1.463
533.2,24.553,1.501
533.4,24.553,1.514
533.6,24.553,1.507
533.8,24.553,1.53
534,24.553,1.538
534.2,24.553,1.578
534.4,24.553,1.588
534.6,24.553,1.597
534.8,24.553,1.635
535,24.553,1.62
535.2,24.553,1.613
535.4,24.553,1.661
535.6,24.553,1.685
535.8,24.553,1.664
536,24.553,1.678
536.2,24.553,1.684
536.4,24.553,1.702
536.6,24.553,1.725
536.8,24.553,1.74
537,24.553,1.733
537.2,24.553,1.738
537.4,24.553,1.746
537.6,24.553,1.744
537.8,24.553,1.77
538,24.553,1.763
538.2,24.553,1.773
538.4,24.553,1.767
538.6,24.553,1.77
538.8,24.553,1.821
539,24.553,1.839
539.2,24.553,1.842
539.4,24.553,1.809
539.6,24.553,1.813
539.8,24.553,1.816
540,24.553,1.875
540.2,24.553,1.846
540.4,24.553,1.869
540.6,24.553,1.861
540.8,24.553,1.864
541,24.553,1.871
541.2,24.553,1.875
541.4,24.553,1.871
541.6,24.553,1.892
541.8,24.553,1.888
542,24.553,1.866
542.2,24.553,1.895
542.4,24.553,1.882
542.6,24.553,1.927
542.8,24.553,1.894
543,24.553,1.902
543.2,24.553,1.907
543.4,24.553,1.908
543.6,24.553,1.92
543.8,24.553,1.915
544,24.553,1.907
544.2,24.553,1.951
544.4,24.553,1.924
544.6,24.553,1.938
544.8,24.553,1.928
545,24.553,1.937
545.2,24.553,1.959
545.4,24.553,1.944
545.6,24.553,1.927
545.8,24.553,1.951
546,24.553,1.962
546.2,24.553,1.935
546.4,24.553,1.946
546.6,24.553,1.957
546.8,24.553,1.916
547,24.553,1.976
547.2,24.553,1.959
547.4,24.553,1.951
547.6,24.553,1.931
547.8,24.553,1.934
548,24.553,1.967
548.2,24.553,1.954
548.4,24.553,1.976
548.6,24.553,1.971
548.8,24.553,1.97
549,24.553,1.946
549.2,24.553,1.971
549.4,24.553,1.964
549.6,24.553,1.973
549.8,24.553,1.955
550,24.553,1.97
550.2,24.553,1.974
550.4,24.553,1.934
550.6,24.553,1.954
550.8,24.553,1.972
551,24.553,1.974
551.2,24.553,1.963
551.4,24.553,1.973
551.6,24.553,1.971
551.8,24.553,1.989
552,24.553,2.002
552.2,24.553,1.996
552.4,24.553,1.943
552.6,24.553,1.988
552.8,24.553,1.953
553,24.553,2.005
553.2,24.553,1.999
553.4,24.553,1.971
553.6,24.553,1.975
553.8,24.553,1.992
554,24.553,1.991
554.2,24.553,1.995
554.4,24.553,1.962
554.6,24.553,1.985
554.8,24.553,2.003
555,24.553,1.992
555.2,24.553,2.002
555.4,24.553,1.985
555.6,24.553,1.965
555.8,24.553,1.981
556,24.553,1.986
556.2,24.553,1.98
556.4,24.553,1.975
556.6,24.553,1.986
556.8,24.553,2.007
557,24.553,1.99
557.2,24.553,1.99
557.4,24.553,1.983
557.6,24.553,1.982
557.8,24.553,1.989
558,24.553,1.995
558.2,24.553,1.981
558.4,24.553,2.022
558.6,24.553,1.978
558.8,24.553,1.995
559,24.553,1.984
559.2,24.553,1.981
559.4,24.553,1.985
559.6,24.553,1.999
559.8,24.553,1.992
560,24.553,1.978
560.2,24.553,2.003
560.4,24.553,1.976
560.6,24.553,1.997
560.8,24.553,1.962
561,24.553,1.982
561.2,24.553,1.955
561.4,24.553,1.997
561.6,24.553,2.009
561.8,24.553,1.967
562,24.553,2
562.2,24.553,1.988
562.4,24.553,1.995
562.6,24.553,2.022
562.8,24.553,2
563,24.553,1.995
563.2,24.553,1.984
563.4,24.553,1.999
563.6,24.553,1.978
563.8,24.553,1.987
564,24.553,2.024
564.2,24.553,1.997
564.4,24.553,1.981
564.6,24.553,1.992
564.8,24.553,1.991
565,24.553,1.996
565.2,24.553,1.986
565.4,24.553,1.996
565.6,24.553,2.002
565.8,24.553,1.964
566,24.553,1.986
566.2,24.553,2.009
566.4,24.553,1.998
566.6,24.553,1.977
566.8,24.553,2.001
567,24.553,1.993
567.2,24.553,1.983
567.4,24.553,2.02
567.6,24.553,1.995
567.8,24.553,1.973
568,24.553,2.008
568.2,24.553,2
568.4,24.553,1.966
568.6,24.553,1.972
568.8,24.553,1.99
569,24.553,1.975
569.2,24.553,2.022
569.4,24.553,2.011
569.6,24.553,1.993
569.8,24.553,1.997
570,24.553,1.976
570.2,24.553,2.011
570.4,24.553,1.987
570.6,24.553,1.991
570.8,24.553,1.991
571,24.553,1.992
571.2,24.553,1.984
571.4,24.553,1.976
571.6,24.553,1.997
571.8,24.553,1.989
572,24.553,1.977
572.2,24.553,1.995
572.4,24.553,1.993
572.6,24.553,1.996
572.8,24.553,1.995
573,24.553,2.001
573.2,24.553,2.019
573.4,24.553,1.989
573.6,24.553,2.005
573.8,24.553,1.99
574,24.553,1.99
574.2,24.553,1.983
574.4,24.553,2.011
574.6,24.553,1.957
574.8,24.553,2.001
575,24.553,1.983
575.2,24.553,1.979
575.4,24.553,1.987
575.6,24.553,2.01
575.8,24.553,2.006
576,24.553,1.977
576.2,24.553,1.994
576.4,24.553,1.985
576.6,24.553,1.971
576.8,24.553,1.998
577,24.553,2.02
577.2,20.094,2.003
577.4,20.094,2.007
577.6,20.094,1.998
577.8,20.094,1.986
578,20.094,1.97
578.2,20.094,1.961
578.4,20.094,1.924
578.6,20.094,1.943
578.8,20.094,1.942
579,20.094,1.913
579.2,20.094,1.889
579.4,20.094,1.884
579.6,20.094,1.888
579.8,20.094,1.859
580,20.094,1.841
580.2,20.094,1.807
580.4,20.094,1.799
580.6,20.094,1.77
580.8,20.094,1.756
581,20.094,1.754
581.2,20.094,1.745
581.4,20.094,1.719
581.6,20.094,1.699
581.8,20.094,1.688
582,20.094,1.683
582.2,20.094,1.641
582.4,20.094,1.646
582.6,20.094,1.623
582.8,20.094,1.614
583,20.094,1.606
583.2,20.094,1.611
583.4,20.094,1.608
583.6,20.094,1.565
583.8,20.094,1.569
584,20.094,1.575
584.2,20.094,1.545
584.4,20.094,1.538
584.6,20.094,1.536
584.8,20.094,1.546
585,20.094,1.504
585.2,20.094,1.516
585.4,20.094,1.486
585.6,20.094,1.489
585.8,20.094,1.499
586,20.094,1.46
586.2,20.094,1.475
586.4,20.094,1.457
586.6,20.094,1.462
586.8,20.094,1.469
587,20.094,1.448
587.2,20.094,1.454
587.4,20.094,1.449
587.6,20.094,1.445
587.8,20.094,1.43
588,20.094,1.418
588.2,20.094,1.449
588.4,20.094,1.419
588.6,20.094,1.41
588.8,20.094,1.431
589,20.094,1.399
589.2,20.094,1.417
589.4,20.094,1.4
589.6,20.094,1.406
589.8,20.094,1.384
590,20.094,1.411
590.2,20.094,1.387
590.4,20.094,1.402
590.6,20.094,1.387
590.8,20.094,1.392
591,20.094,1.383
591.2,20.094,1.382
591.4,20.094,1.374
591.6,20.094,1.363
591.8,20.094,1.397
592,20.094,1.388
592.2,20.094,1.382
592.4,20.094,1.382
592.6,20.094,1.388
592.8,20.094,1.38
593,20.094,1.345
593.2,20.094,1.386
593.4,20.094,1.369
593.6,20.094,1.345
593.8,20.094,1.351
594,20.094,1.357
594.2,20.094,1.38
594.4,20.094,1.366
594.6,20.094,1.364
594.8,20.094,1.358
595,20.094,1.351
595.2,20.094,1.364
595.4,20.094,1.318
595.6,20.094,1.333
595.8,20.094,1.357
596,20.094,1.351
596.2,20.094,1.343
596.4,20.094,1.346
596.6,20.094,1.382
596.8,20.094,1.362
597,20.094,1.345
597.2,20.094,1.333
597.4,20.094,1.359
597.6,20.094,1.334
597.8,20.094,1.352
598,20.094,1.345
598.2,20.094,1.351
598.4,20.094,1.355
598.6,20.094,1.356
598.8,20.094,1.339
599,20.094,1.364
599.2,20.094,1.338
599.4,20.094,1.331
599.6,20.094,1.351
599.8,20.094,1.331
600,20.094,1.354
600.2,20.094,1.31
600.4,20.094,1.353
600.6,20.094,1.336
600.8,20.094,1.341
601,20.094,1.37
601.2,20.094,1.353
601.4,20.094,1.344
601.6,20.094,1.323
601.8,20.094,1.337
602,20.094,1.34
602.2,20.094,1.325
602.4,20.094,1.338
602.6,20.094,1.349
602.8,20.094,1.345
603,20.094,1.333
603.2,20.094,1.349
603.4,20.094,1.337
603.6,20.094,1.304
603.8,20.094,1.362
604,20.094,1.324
604.2,20.094,1.34
604.4,20.094,1.339
604.6,20.094,1.342
604.8,20.094,1.314
605,20.094,1.336
605.2,20.094,1.34
605.4,20.094,1.352
605.6,20.094,1.371
605.8,20.094,1.332
606,20.094,1.329
606.2,20.094,1.313
606.4,20.094,1.329
606.6,20.094,1.332
606.8,20.094,1.333
607,20.094,1.338
607.2,20.094,1.32
607.4,20.094,1.319
607.6,20.094,1.35
607.8,20.094,1.349
608,20.094,1.318
608.2,20.094,1.339
608.4,22.942,1.345
608.6,22.942,1.348
608.8,22.942,1.356
609,22.942,1.348
609.2,22.942,1.351
609.4,22.942,1.353
609.6,22.942,1.366
609.8,22.942,1.396
610,22.942,1.37
610.2,22.942,1.356
610.4,22.942,1.382
610.6,22.942,1.41
610.8,22.942,1.396
611,22.942,1.397
611.2,22.942,1.453
611.4,22.942,1.44
611.6,22.942,1.445
611.8,22.942,1.434
612,22.942,1.484
612.2,22.942,1.48
612.4,22.942,1.487
612.6,22.942,1.485
612.8,22.942,1.499
613,22.942,1.502
613.2,22.942,1.525
613.4,22.942,1.512
613.6,22.942,1.524
613.8,22.942,1.52
614,22.942,1.567
614.2,22.942,1.59
614.4,22.942,1.571
614.6,22.942,1.585
614.8,22.942,1.57
615,22.942,1.598
615.2,22.942,1.562
615.4,22.942,1.583
615.6,22.942,1.585
615.8,22.942,1.607
616,22.942,1.623
616.2,22.942,1.608
616.4,22.942,1.622
616.6,22.942,1.626
616.8,22.942,1.62
617,22.942,1.618
617.2,22.942,1.641
617.4,22.942,1.645
617.6,22.942,1.659
617.8,22.942,1.643
618,22.942,1.642
618.2,22.942,1.66
618.4,22.942,1.667
618.6,22.942,1.622
618.8,22.942,1.68
619,22.942,1.673
619.2,22.942,1.703
619.4,22.942,1.66
619.6,22.942,1.699
619.8,22.942,1.668
620,22.942,1.66
620.2,22.942,1.674
620.4,22.942,1.675
620.6,22.942,1.699
620.8,22.942,1.693
621,22.942,1.71
621.2,22.942,1.68
621.4,22.942,1.668
621.6,22.942,1.706
621.8,22.942,1.693
622,22.942,1.689
622.2,22.942,1.695
622.4,22.942,1.706
622.6,22.942,1.682
622.8,22.942,1.696
623,22.942,1.713
623.2,22.942,1.715
623.4,22.942,1.73
623.6,22.942,1.688
623.8,22.942,1.718
624,19.292,1.695
624.2,19.292,1.717
624.4,19.292,1.685
624.6,19.292,1.726
624.8,19.292,1.7
625,19.292,1.695
625.2,19.292,1.683
625.4,19.292,1.67
625.6,19.292,1.649
625.8,19.292,1.662
626,19.292,1.641
626.2,19.292,1.601
626.4,19.292,1.612
626.6,19.292,1.637
626.8,19.292,1.593
627,19.292,1.569
627.2,19.292,1.573
627.4,19.292,1.575
627.6,19.292,1.545
627.8,19.292,1.515
628,19.292,1.535
628.2,19.292,1.483
628.4,19.292,1.514
628.6,19.292,1.508
628.8,19.292,1.483
629,19.292,1.486
629.2,19.292,1.473
629.4,19.292,1.439
629.6,19.292,1.453
629.8,19.292,1.46
630,19.292,1.424
630.2,19.292,1.431
630.4,19.292,1.418
630.6,19.292,1.42
630.8,19.292,1.415
631,19.292,1.384
631.2,19.292,1.374
631.4,19.292,1.365
631.6,19.292,1.375
631.8,19.292,1.366
632,19.292,1.357
632.2,19.292,1.338
632.4,19.292,1.356
632.6,19.292,1.355
632.8,19.292,1.323
633,19.292,1.362
633.2,19.292,1.305
633.4,19.292,1.329
633.6,19.292,1.326
633.8,19.292,1.311
634,19.292,1.32
634.2,19.292,1.296
634.4,19.292,1.312
634.6,19.292,1.326
634.8,19.292,1.308
635,19.292,1.318
635.2,19.292,1.299
635.4,19.292,1.306
635.6,19.292,1.304
635.8,19.292,1.295
636,19.292,1.277
636.2,19.292,1.27
636.4,19.292,1.298
636.6,19.292,1.267
636.8,19.292,1.281
637,19.292,1.331
637.2,19.292,1.316
637.4,19.292,1.278
637.6,19.292,1.305
637.8,19.292,1.296
638,19.292,1.274
638.2,19.292,1.23
638.4,19.292,1.258
638.6,19.292,1.262
638.8,19.292,1.266
639,19.292,1.232
639.2,19.292,1.245
639.4,19.292,1.254
639.6,19.292,1.245
639.8,19.292,1.236
640,19.292,1.285
640.2,19.292,1.249
640.4,19.292,1.258
640.6,19.292,1.263
640.8,19.292,1.275
641,19.292,1.282
641.2,19.292,1.256
641.4,19.292,1.25
641.6,19.292,1.244
641.8,19.292,1.264
642,19.292,1.265
642.2,19.292,1.256
642.4,19.292,1.238
642.6,19.292,1.251
642.8,19.292,1.247
643,19.292,1.246
643.2,19.292,1.24
643.4,19.292,1.247
643.6,19.292,1.24
643.8,19.292,1.215
644,19.292,1.258
644.2,19.292,1.236
644.4,19.292,1.256
644.6,19.292,1.259
644.8,19.292,1.226
645,19.292,1.223
645.2,19.292,1.221
645.4,19.292,1.252
645.6,19.292,1.256
645.8,19.292,1.219
646,19.292,1.224
646.2,19.292,1.199
646.4,19.292,1.227
646.6,19.292,1.213
646.8,19.292,1.219
647,19.292,1.219
647.2,19.292,1.256
647.4,19.292,1.242
647.6,19.292,1.212
647.8,19.292,1.25
648,19.292,1.232
648.2,19.292,1.231
648.4,19.292,1.235
648.6,19.292,1.228
648.8,19.292,1.234
649,19.292,1.232
649.2,19.292,1.226
649.4,19.292,1.231
649.6,19.292,1.255
649.8,19.292,1.245
650,19.292,1.225
650.2,19.292,1.272
650.4,19.292,1.241
650.6,19.292,1.253
650.8,19.292,1.211
651,19.292,1.245
651.2,19.292,1.241
651.4,19.292,1.227
651.6,19.292,1.21
651.8,19.292,1.229
652,19.292,1.224
652.2,19.292,1.211
652.4,19.292,1.233
652.6,19.292,1.231
652.8,19.292,1.229
653,19.292,1.234
653.2,19.292,1.221
653.4,19.292,1.225
653.6,19.292,1.242
653.8,19.292,1.24
654,19.292,1.26
654.2,19.292,1.211
654.4,19.292,1.225
654.6,19.292,1.256
654.8,19.292,1.206
655,19.292,1.235
655.2,19.292,1.231
655.4,19.292,1.238
655.6,19.292,1.25
655.8,19.292,1.239
656,19.292,1.241
656.2,19.292,1.219
656.4,19.292,1.263
656.6,19.292,1.218
656.8,19.292,1.227
657,19.292,1.25
657.2,19.292,1.234
657.4,19.292,1.226
657.6,19.292,1.223
657.8,19.292,1.223
658,19.292,1.223
658.2,19.292,1.223
658.4,19.292,1.242
658.6,19.292,1.215
658.8,19.292,1.251
659,19.292,1.235
659.2,19.292,1.226
659.4,19.292,1.24
659.6,19.292,1.251
659.8,19.292,1.244
660,19.292,1.253
660.2,19.292,1.204
660.4,19.292,1.228
660.6,19.292,1.24
660.8,19.292,1.24
661,19.292,1.25
661.2,19.292,1.233
661.4,19.292,1.227
661.6,19.292,1.24
661.8,19.292,1.244
662,19.292,1.22
662.2,19.292,1.205
662.4,19.292,1.232
662.6,19.292,1.236
662.8,19.292,1.242
663,19.292,1.245
663.2,19.292,1.246
663.4,19.292,1.238
663.6,19.292,1.22
663.8,19.292,1.236
664,19.292,1.242
664.2,19.292,1.228
664.4,19.292,1.241
664.6,19.292,1.221
664.8,19.292,1.263
665,19.292,1.201
665.2,19.292,1.207
665.4,19.292,1.211
665.6,19.292,1.241
665.8,19.292,1.222
666,19.292,1.225
666.2,19.292,1.223
666.4,19.292,1.232
666.6,19.292,1.213
666.8,19.292,1.194
667,19.292,1.226
667.2,19.292,1.227
667.4,19.292,1.222
667.6,19.292,1.24
667.8,19.292,1.229
668,19.292,1.238
668.2,19.292,1.241
668.4,19.292,1.235
668.6,19.292,1.215
668.8,19.292,1.241
669,19.292,1.239
669.2,19.292,1.224
669.4,19.292,1.215
669.6,19.292,1.206
669.8,19.292,1.243
670,19.292,1.249
670.2,19.292,1.238
670.4,19.292,1.206
670.6,19.292,1.231
670.8,19.292,1.229
671,19.292,1.219
671.2,19.292,1.258
671.4,19.292,1.213
671.6,19.292,1.226
671.8,19.292,1.231
672,19.292,1.221
672.2,19.292,1.209
672.4,19.292,1.217
672.6,19.292,1.24
672.8,19.292,1.23
673,19.292,1.209
673.2,19.292,1.226
673.4,19.292,1.23
673.6,19.292,1.231
673.8,19.292,1.217
674,19.292,1.229
674.2,19.292,1.227
674.4,19.292,1.235
674.6,19.292,1.233
674.8,19.292,1.234
675,19.292,1.232
675.2,19.292,1.227
675.4,19.292,1.25
675.6,19.292,1.239
675.8,19.292,1.257
676,19.292,1.233
676.2,19.292,1.237
676.4,19.292,1.221
676.6,19.292,1.218
676.8,19.292,1.231
677,19.292,1.205
677.2,19.292,1.225
677.4,19.292,1.225
677.6,19.292,1.241
677.8,19.292,1.254
678,19.292,1.223
678.2,19.292,1.23
678.4,19.292,1.234
678.6,19.292,1.26
678.8,19.292,1.229
679,19.292,1.227
679.2,19.292,1.229
679.4,19.292,1.212
679.6,19.292,1.226
679.8,19.292,1.238
680,19.292,1.236
680.2,19.292,1.241
680.4,19.292,1.228
680.6,19.292,1.231
680.8,19.292,1.226
681,19.292,1.256
681.2,19.292,1.226
681.4,19.292,1.252
681.6,19.292,1.198
681.8,19.292,1.265
682,19.292,1.241
682.2,19.292,1.25
682.4,19.292,1.218
682.6,19.292,1.221
682.8,19.292,1.209
683,19.292,1.23
683.2,19.292,1.234
683.4,19.292,1.238
683.6,19.292,1.238
683.8,19.292,1.229
684,19.292,1.224
684.2,19.292,1.228
684.4,19.292,1.218
684.6,19.292,1.251
684.8,19.292,1.233
685,19.292,1.209
685.2,19.292,1.235
685.4,19.292,1.222
685.6,19.292,1.224
685.8,19.292,1.21
686,19.292,1.245
686.2,19.292,1.255
686.4,22.439,1.2
686.6,22.439,1.225
686.8,22.439,1.233
687,22.439,1.245
687.2,22.439,1.253
687.4,22.439,1.257
687.6,22.439,1.251
687.8,22.439,1.261
688,22.439,1.306
688.2,22.439,1.281
688.4,22.439,1.3
688.6,22.439,1.301
688.8,22.439,1.314
689,22.439,1.328
689.2,22.439,1.328
689.4,22.439,1.342
689.6,22.439,1.352
689.8,22.439,1.358
690,22.439,1.393
690.2,22.439,1.373
690.4,22.439,1.37
690.6,22.439,1.43
690.8,22.439,1.412
691,22.439,1.417
691.2,22.439,1.438
691.4,22.439,1.453
691.6,22.439,1.45
691.8,22.439,1.476
692,22.439,1.465
692.2,22.439,1.459
692.4,22.439,1.444
692.6,22.439,1.479
692.8,22.439,1.5
693,22.439,1.506
693.2,22.439,1.516
693.4,22.439,1.526
693.6,22.439,1.494
693.8,22.439,1.519
694,22.439,1.517
694.2,22.439,1.535
694.4,22.439,1.514
694.6,22.439,1.532
694.8,22.439,1.555
695,22.439,1.553
695.2,22.439,1.568
695.4,22.439,1.568
695.6,22.439,1.547
695.8,22.439,1.55
696,22.439,1.575
696.2,22.439,1.581
696.4,22.439,1.563
696.6,22.439,1.596
696.8,22.439,1.572
697,22.439,1.589
697.2,22.439,1.59
697.4,22.439,1.597
697.6,22.439,1.6
697.8,22.439,1.581
698,22.439,1.584
698.2,22.439,1.6
698.4,22.439,1.581
698.6,22.439,1.616
698.8,22.439,1.621
699,22.439,1.606
699.2,22.439,1.61
699.4,22.439,1.595
699.6,22.439,1.619
699.8,22.439,1.625
700,22.439,1.622
700.2,22.439,1.625
700.4,22.439,1.609
700.6,22.439,1.634
700.8,22.439,1.633
701,22.439,1.628
701.2,22.439,1.625
701.4,22.439,1.639
701.6,22.439,1.654
701.8,22.439,1.651
702,19.955,1.631
702.2,19.955,1.652
702.4,19.955,1.631
702.6,19.955,1.652
702.8,19.955,1.624
703,19.955,1.605
703.2,19.955,1.606
703.4,19.955,1.624
703.6,19.955,1.605
703.8,19.955,1.59
704,19.955,1.591
704.2,19.955,1.578
704.4,19.955,1.571
704.6,19.955,1.551
704.8,19.955,1.586
705,19.955,1.541
705.2,19.955,1.564
705.4,19.955,1.512
705.6,19.955,1.534
705.8,19.955,1.524
706,19.955,1.53
706.2,19.955,1.524
706.4,19.955,1.49
706.6,19.955,1.48
706.8,19.955,1.479
707,19.955,1.457
707.2,19.955,1.474
707.4,19.955,1.448
707.6,19.955,1.461
707.8,19.955,1.486
708,19.955,1.456
708.2,19.955,1.428
708.4,19.955,1.464
708.6,19.955,1.439
708.8,19.955,1.432
709,19.955,1.445
709.2,19.955,1.422
709.4,19.955,1.398
709.6,19.955,1.404
709.8,19.955,1.437
710,19.955,1.399
710.2,19.955,1.409
710.4,19.955,1.392
710.6,19.955,1.418
710.8,19.955,1.417
711,19.955,1.379
711.2,19.955,1.362
711.4,19.955,1.385
711.6,19.955,1.386
711.8,19.955,1.391
712,19.955,1.38
712.2,19.955,1.392
712.4,19.955,1.38
712.6,19.955,1.36
712.8,19.955,1.379
713,19.955,1.354
713.2,19.955,1.39
713.4,19.955,1.35
713.6,19.955,1.36
713.8,19.955,1.361
714,19.955,1.365
714.2,19.955,1.353
714.4,19.955,1.349
714.6,19.955,1.364
714.8,19.955,1.354
715,19.955,1.329
715.2,19.955,1.33
715.4,19.955,1.347
715.6,19.955,1.348
715.8,19.955,1.359
716,19.955,1.351
716.2,19.955,1.33
716.4,19.955,1.353
716.6,19.955,1.346
716.8,19.955,1.328
717,19.955,1.328
717.2,19.955,1.352
717.4,19.955,1.331
717.6,19.955,1.324
717.8,19.955,1.355
718,19.955,1.332
718.2,19.955,1.325
718.4,19.955,1.316
718.6,19.955,1.331
718.8,19.955,1.344
719,19.955,1.312
719.2,19.955,1.336
719.4,19.955,1.318
719.6,19.955,1.353
719.8,19.955,1.336
720,19.955,1.339
720.2,19.955,1.314
720.4,19.955,1.339
720.6,19.955,1.315
720.8,19.955,1.325
721,19.955,1.341
721.2,19.955,1.321
721.4,19.955,1.349
721.6,19.955,1.329
721.8,19.955,1.308
722,19.955,1.331
722.2,19.955,1.301
722.4,19.955,1.327
722.6,19.955,1.347
722.8,19.955,1.325
723,19.955,1.357
723.2,19.955,1.334
723.4,19.955,1.332
723.6,19.955,1.328
723.8,19.955,1.33
724,19.955,1.342
724.2,19.955,1.33
724.4,19.955,1.319
724.6,19.955,1.309
724.8,19.955,1.341
725,19.955,1.318
725.2,19.955,1.323
725.4,19.955,1.302
725.6,19.955,1.326
725.8,19.955,1.318
726,19.955,1.309
726.2,19.955,1.317
726.4,19.955,1.348
726.6,19.955,1.319
726.8,19.955,1.329
727,19.955,1.326
727.2,19.955,1.301
727.4,19.955,1.325
727.6,19.955,1.308
727.8,19.955,1.334
728,19.955,1.332
728.2,19.955,1.326
728.4,19.955,1.309
728.6,19.955,1.318
728.8,19.955,1.316
729,19.955,1.34
729.2,19.955,1.325
729.4,19.955,1.325
729.6,19.955,1.3
729.8,19.955,1.307
730,19.955,1.305
730.2,19.955,1.315
730.4,19.955,1.305
730.6,19.955,1.311
730.8,19.955,1.305
731,19.955,1.332
731.2,19.955,1.319
731.4,19.955,1.308
731.6,19.955,1.314
731.8,19.955,1.333
732,19.955,1.324
732.2,19.955,1.339
732.4,19.955,1.33
732.6,19.955,1.317
732.8,19.955,1.328
733,19.955,1.339
733.2,21.788,1.287
733.4,21.788,1.298
733.6,21.788,1.345
733.8,21.788,1.302
734,21.788,1.322
734.2,21.788,1.316
734.4,21.788,1.352
734.6,21.788,1.333
734.8,21.788,1.366
735,21.788,1.366
735.2,21.788,1.353
735.4,21.788,1.367
735.6,21.788,1.358
735.8,21.788,1.38
736,21.788,1.364
736.2,21.788,1.369
736.4,21.788,1.391
736.6,21.788,1.427
736.8,21.788,1.417
737,21.788,1.405
737.2,21.788,1.417
737.4,21.788,1.433
737.6,21.788,1.424
737.8,21.788,1.412
738,21.788,1.416
738.2,21.788,1.422
738.4,21.788,1.452
738.6,21.788,1.448
738.8,21.788,1.445
739,21.788,1.442
739.2,21.788,1.429
739.4,21.788,1.459
739.6,21.788,1.458
739.8,21.788,1.462
740,21.788,1.466
740.2,21.788,1.474
740.4,21.788,1.467
740.6,21.788,1.49
740.8,21.788,1.497
741,21.788,1.467
741.2,21.788,1.512
741.4,21.788,1.5
741.6,21.788,1.484
741.8,21.788,1.487
742,21.788,1.527
742.2,21.788,1.523
742.4,21.788,1.513
742.6,21.788,1.513
742.8,21.788,1.53
743,21.788,1.527
743.2,21.788,1.51
743.4,21.788,1.541
743.6,21.788,1.519
743.8,21.788,1.534
744,21.788,1.538
744.2,21.788,1.551
744.4,21.788,1.515
744.6,21.788,1.523
744.8,21.788,1.53
745,21.788,1.539
745.2,21.788,1.54
745.4,21.788,1.527
745.6,21.788,1.538
745.8,21.788,1.543
746,21.788,1.534
746.2,21.788,1.561
746.4,21.788,1.538
746.6,21.788,1.53
746.8,21.788,1.56
747,21.788,1.546
747.2,21.788,1.534
747.4,21.788,1.549
747.6,21.788,1.584
747.8,21.788,1.566
748,21.788,1.565
748.2,21.788,1.55
748.4,21.788,1.57
748.6,21.788,1.529
748.8,17.557,1.572
749,17.557,1.546
749.2,17.557,1.573
749.4,17.557,1.542
749.6,17.557,1.554
749.8,17.557,1.547
750,17.557,1.535
750.2,17.557,1.487
750.4,17.557,1.487
750.6,17.557,1.478
750.8,17.557,1.478
751,17.557,1.463
751.2,17.557,1.46
751.4,17.557,1.403
751.6,17.557,1.393
751.8,17.557,1.384
752,17.557,1.364
752.2,17.557,1.352
752.4,17.557,1.367
752.6,17.557,1.334
752.8,17.557,1.336
753,17.557,1.315
753.2,17.557,1.312
753.4,17.557,1.302
753.6,17.557,1.28
753.8,17.557,1.282
754,17.557,1.266
754.2,17.557,1.27
754.4,17.557,1.228
754.6,17.557,1.239
754.8,17.557,1.206
755,17.557,1.231
755.2,17.557,1.211
755.4,17.557,1.204
755.6,17.557,1.165
755.8,17.557,1.164
756,17.557,1.181
756.2,17.557,1.173
756.4,17.557,1.15
756.6,17.557,1.12
756.8,17.557,1.133
757,17.557,1.175
757.2,17.557,1.134
757.4,17.557,1.137
757.6,17.557,1.14
757.8,17.557,1.106
758,17.557,1.128
758.2,17.557,1.108
758.4,17.557,1.106
758.6,17.557,1.114
758.8,17.557,1.108
759,17.557,1.1
759.2,17.557,1.125
759.4,17.557,1.067
759.6,17.557,1.112
759.8,17.557,1.116
760,17.557,1.102
760.2,17.557,1.097
760.4,17.557,1.099
760.6,17.557,1.077
760.8,17.557,1.093
761,17.557,1.091
761.2,17.557,1.073
761.4,17.557,1.065
761.6,17.557,1.056
761.8,17.557,1.084
762,17.557,1.077
762.2,17.557,1.058
762.4,17.557,1.06
762.6,17.557,1.059
762.8,17.557,1.046
763,17.557,1.047
763.2,17.557,1.06
763.4,17.557,1.082
763.6,17.557,1.057
763.8,17.557,1.057
764,17.557,1.055
764.2,17.557,1.048
764.4,25.376,1.068
764.6,25.376,1.065
764.8,25.376,1.089
765,25.376,1.097
765.2,25.376,1.099
765.4,25.376,1.102
765.6,25.376,1.103
765.8,25.376,1.166
766,25.376,1.15
766.2,25.376,1.175
766.4,25.376,1.193
766.6,25.376,1.223
766.8,25.376,1.251
767,25.376,1.27
767.2,25.376,1.304
767.4,25.376,1.294
767.6,25.376,1.359
767.8,25.376,1.366
768,25.376,1.39
768.2,25.376,1.41
768.4,25.376,1.425
768.6,25.376,1.471
768.8,25.376,1.453
769,25.376,1.479
769.2,25.376,1.517
769.4,25.376,1.554
769.6,25.376,1.543
769.8,25.376,1.583
770,25.376,1.581
770.2,25.376,1.61
770.4,25.376,1.609
770.6,25.376,1.642
770.8,25.376,1.663
771,25.376,1.663
771.2,25.376,1.699
771.4,25.376,1.69
771.6,25.376,1.715
771.8,25.376,1.721
772,25.376,1.723
772.2,25.376,1.76
772.4,25.376,1.768
772.6,25.376,1.787
772.8,25.376,1.814
773,25.376,1.808
773.2,25.376,1.812
773.4,25.376,1.848
773.6,25.376,1.859
773.8,25.376,1.867
774,25.376,1.877
774.2,25.376,1.875
774.4,25.376,1.909
774.6,25.376,1.894
774.8,25.376,1.888
775,25.376,1.922
775.2,25.376,1.912
775.4,25.376,1.934
775.6,25.376,1.942
775.8,25.376,1.96
776,25.376,1.935
776.2,25.376,1.954
776.4,25.376,1.968
776.6,25.376,1.984
776.8,25.376,1.956
777,25.376,2.011
777.2,25.376,1.954
777.4,25.376,1.999
777.6,25.376,2.007
777.8,25.376,1.991
778,25.376,2.027
778.2,25.376,2.016
778.4,25.376,2.01
778.6,25.376,2.016
778.8,25.376,2.022
779,25.376,2.01
779.2,25.376,2.021
779.4,25.376,2.084
779.6,25.376,2.03
779.8,25.376,2.04
780,19.332,2.053
780.2,19.332,2.068
780.4,19.332,2.04
780.6,19.332,2.038
780.8,19.332,2.036
781,19.332,2.012
781.2,19.332,2.01
781.4,19.332,2.005
781.6,19.332,1.968
781.8,19.332,1.952
782,19.332,1.941
782.2,19.332,1.928
782.4,19.332,1.922
782.6,19.332,1.872
782.8,19.332,1.861
783,19.332,1.841
783.2,19.332,1.812
783.4,19.332,1.795
783.6,19.332,1.79
783.8,19.332,1.765
784,19.332,1.715
784.2,19.332,1.712
784.4,19.332,1.696
784.6,19.332,1.676
784.8,19.332,1.654
785,19.332,1.644
785.2,19.332,1.649
785.4,19.332,1.588
785.6,19.332,1.591
785.8,19.332,1.592
786,19.332,1.565
786.2,19.332,1.548
786.4,19.332,1.508
786.6,19.332,1.531
786.8,19.332,1.527
787,19.332,1.508
787.2,19.332,1.481
787.4,19.332,1.473
787.6,19.332,1.446
787.8,19.332,1.464
788,19.332,1.441
788.2,19.332,1.454
788.4,19.332,1.442
788.6,19.332,1.428
788.8,19.332,1.412
789,19.332,1.404
789.2,19.332,1.412
789.4,19.332,1.396
789.6,19.332,1.394
789.8,19.332,1.373
790,19.332,1.379
790.2,19.332,1.376
790.4,19.332,1.365
790.6,19.332,1.356
790.8,19.332,1.34
791,19.332,1.358
791.2,19.332,1.35
791.4,19.332,1.339
791.6,19.332,1.313
791.8,19.332,1.335
792,19.332,1.341
792.2,19.332,1.324
792.4,19.332,1.333
792.6,19.332,1.299
792.8,19.332,1.292
793,19.332,1.318
793.2,19.332,1.283
793.4,19.332,1.318
793.6,19.332,1.308
793.8,19.332,1.304
794,19.332,1.304
794.2,19.332,1.318
794.4,19.332,1.304
794.6,19.332,1.302
794.8,19.332,1.284
795,19.332,1.281
795.2,19.332,1.281
795.4,19.332,1.277
795.6,19.332,1.296
795.8,19.332,1.284
796,19.332,1.289
796.2,19.332,1.28
796.4,19.332,1.268
796.6,19.332,1.293
796.8,19.332,1.259
797,19.332,1.268
797.2,19.332,1.285
797.4,19.332,1.279
797.6,19.332,1.256
797.8,19.332,1.267
798,19.332,1.274
798.2,19.332,1.249
798.4,19.332,1.271
798.6,19.332,1.28
798.8,19.332,1.273
799,19.332,1.25
799.2,19.332,1.243
799.4,19.332,1.29
799.6,19.332,1.272
799.8,19.332,1.227
800,19.332,1.229
800.2,19.332,1.236
800.4,19.332,1.265
800.6,19.332,1.261
800.8,19.332,1.234
801,19.332,1.256
801.2,19.332,1.246
801.4,19.332,1.26
801.6,19.332,1.219
801.8,19.332,1.249
802,19.332,1.275
802.2,19.332,1.253
802.4,19.332,1.246
802.6,19.332,1.255
802.8,19.332,1.241
803,19.332,1.251
803.2,19.332,1.246
803.4,19.332,1.246
803.6,19.332,1.252
803.8,19.332,1.266
804,19.332,1.232
804.2,19.332,1.236
804.4,19.332,1.248
804.6,19.332,1.239
804.8,19.332,1.229
805,19.332,1.252
805.2,19.332,1.239
805.4,19.332,1.236
805.6,19.332,1.236
805.8,19.332,1.265
806,19.332,1.224
806.2,19.332,1.24
806.4,19.332,1.249
806.6,19.332,1.227
806.8,19.332,1.253
807,19.332,1.237
807.2,19.332,1.24
807.4,19.332,1.254
807.6,19.332,1.216
807.8,19.332,1.241
808,19.332,1.262
808.2,19.332,1.264
808.4,19.332,1.258
808.6,19.332,1.238
808.8,19.332,1.238
809,19.332,1.248
809.2,19.332,1.222
809.4,19.332,1.214
809.6,19.332,1.225
809.8,19.332,1.243
810,19.332,1.234
810.2,19.332,1.226
810.4,19.332,1.218
810.6,19.332,1.263
810.8,19.332,1.27
811,19.332,1.251
811.2,23.543,1.26
811.4,23.543,1.267
811.6,23.543,1.219
811.8,23.543,1.28
812,23.543,1.23
812.2,23.543,1.305
812.4,23.543,1.282
812.6,23.543,1.324
812.8,23.543,1.306
813,23.543,1.338
813.2,23.543,1.327
813.4,23.543,1.335
813.6,23.543,1.356
813.8,23.543,1.382
814,23.543,1.397
814.2,23.543,1.39
814.4,23.543,1.42
814.6,23.543,1.433
814.8,23.543,1.415
815,23.543,1.425
815.2,23.543,1.46
815.4,23.543,1.453
815.6,23.543,1.479
815.8,23.543,1.484
816,23.543,1.482
816.2,23.543,1.527
816.4,23.543,1.518
816.6,23.543,1.538
816.8,23.543,1.574
817,23.543,1.541
817.2,23.543,1.559
817.4,23.543,1.578
817.6,23.543,1.602
817.8,23.543,1.587
818,23.543,1.608
818.2,23.543,1.623
818.4,23.543,1.619
818.6,23.543,1.626
818.8,23.543,1.651
819,23.543,1.658
819.2,23.543,1.658
819.4,23.543,1.66
819.6,23.543,1.655
819.8,23.543,1.648
820,23.543,1.699
820.2,23.543,1.694
820.4,23.543,1.712
820.6,23.543,1.69
820.8,23.543,1.697
821,23.543,1.722
821.2,23.543,1.749
821.4,23.543,1.7
821.6,23.543,1.732
821.8,23.543,1.728
822,23.543,1.738
822.2,23.543,1.754
822.4,23.543,1.728
822.6,23.543,1.755
822.8,23.543,1.736
823,23.543,1.731
823.2,23.543,1.741
823.4,23.543,1.74
823.6,23.543,1.771
823.8,23.543,1.764
824,23.543,1.754
824.2,23.543,1.764
824.4,23.543,1.783
824.6,23.543,1.752
824.8,23.543,1.768
825,23.543,1.756
825.2,23.543,1.765
825.4,23.543,1.769
825.6,23.543,1.773
825.8,23.543,1.776
826,23.543,1.789
826.2,23.543,1.792
826.4,23.543,1.798
826.6,23.543,1.791
826.8,17.49,1.788
827,17.49,1.772
827.2,17.49,1.804
827.4,17.49,1.78
827.6,17.49,1.761
827.8,17.49,1.74
828,17.49,1.727
828.2,17.49,1.728
828.4,17.49,1.698
828.6,17.49,1.674
828.8,17.49,1.677
829,17.49,1.638
829.2,17.49,1.635
829.4,17.49,1.607
829.6,17.49,1.578
829.8,17.49,1.569
830,17.49,1.538
830.2,17.49,1.542
830.4,17.49,1.512
830.6,17.49,1.482
830.8,17.49,1.44
831,17.49,1.479
831.2,17.49,1.436
831.4,17.49,1.43
831.6,17.49,1.383
831.8,17.49,1.379
832,17.49,1.377
832.2,17.49,1.356
832.4,17.49,1.351
832.6,17.49,1.336
832.8,17.49,1.298
833,17.49,1.31
833.2,17.49,1.295
833.4,17.49,1.297
833.6,17.49,1.289
833.8,17.49,1.252
834,17.49,1.255
834.2,17.49,1.228
834.4,17.49,1.223
834.6,17.49,1.213
834.8,17.49,1.186
835,17.49,1.196
835.2,17.49,1.177
835.4,17.49,1.19
835.6,17.49,1.184
835.8,17.49,1.145
836,17.49,1.15
836.2,17.49,1.146
836.4,17.49,1.144
836.6,17.49,1.136
836.8,17.49,1.113
837,17.49,1.129
837.2,17.49,1.137
837.4,17.49,1.13
837.6,17.49,1.115
837.8,17.49,1.105
838,17.49,1.115
838.2,17.49,1.104
838.4,17.49,1.079
838.6,17.49,1.095
838.8,17.49,1.115
839,17.49,1.084
839.2,17.49,1.073
839.4,17.49,1.092
839.6,17.49,1.093
839.8,17.49,1.089
840,17.49,1.082
840.2,17.49,1.066
840.4,17.49,1.092
840.6,17.49,1.053
840.8,17.49,1.076
841,17.49,1.052
841.2,17.49,1.068
841.4,17.49,1.061
841.6,17.49,1.078
841.8,17.49,1.061
842,17.49,1.075
842.2,17.49,1.067
842.4,17.49,1.079
842.6,17.49,1.045
842.8,17.49,1.036
843,17.49,1.061
843.2,17.49,1.069
843.4,17.49,1.058
843.6,17.49,1.034
843.8,17.49,1.057
844,17.49,1.049
844.2,17.49,1.039
844.4,17.49,1.033
844.6,17.49,1.051
844.8,17.49,1.038
845,17.49,1.045
845.2,17.49,1.017
845.4,17.49,1.048
845.6,17.49,1.029
845.8,17.49,1.034
846,17.49,1.022
846.2,17.49,1.004
846.4,17.49,1.01
846.6,17.49,1.029
846.8,17.49,0.999
847,17.49,1.055
847.2,17.49,1.022
847.4,17.49,1.004
847.6,17.49,1.033
847.8,17.49,1.013
848,17.49,1.014
848.2,17.49,1.029
848.4,17.49,1.035
848.6,17.49,0.997
848.8,17.49,1.043
849,17.49,1.022
849.2,17.49,1.016
849.4,17.49,1.024
849.6,17.49,1.008
849.8,17.49,1.022
850,17.49,1.02
850.2,17.49,1.019
850.4,17.49,1.035
850.6,17.49,1.016
850.8,17.49,1.037
851,17.49,1.016
851.2,17.49,1.008
851.4,17.49,1.02
851.6,17.49,1.015
851.8,17.49,1.044
852,17.49,0.992
852.2,17.49,1.012
852.4,17.49,1.007
852.6,17.49,1.006
852.8,17.49,0.967
853,17.49,1.021
853.2,17.49,1.033
853.4,17.49,1.006
853.6,17.49,1.03
853.8,17.49,1.009
854,17.49,1.007
854.2,17.49,0.995
854.4,17.49,1.036
854.6,17.49,1.022
854.8,17.49,1.007
855,17.49,1.041
855.2,17.49,1.016
855.4,17.49,1.024
855.6,17.49,1.014
855.8,17.49,1.015
856,17.49,1.003
856.2,17.49,1.002
856.4,17.49,1.035
856.6,17.49,1.028
856.8,17.49,1.023
857,17.49,1.006
857.2,17.49,1.016
857.4,17.49,1.015
857.6,17.49,1
857.8,17.49,1.002
858,24.204,1.012
858.2,24.204,1.012
858.4,24.204,1.004
858.6,24.204,1.012
858.8,24.204,1.041
859,24.204,1.072
859.2,24.204,1.089
859.4,24.204,1.09
859.6,24.204,1.129
859.8,24.204,1.119
860,24.204,1.131
860.2,24.204,1.18
860.4,24.204,1.167
860.6,24.204,1.225
860.8,24.204,1.243
861,24.204,1.265
861.2,24.204,1.287
861.4,24.204,1.284
861.6,24.204,1.291
861.8,24.204,1.325
862,24.204,1.352
862.2,24.204,1.377
862.4,24.204,1.379
862.6,24.204,1.421
862.8,24.204,1.433
863,24.204,1.433
863.2,24.204,1.43
863.4,24.204,1.443
863.6,24.204,1.468
863.8,24.204,1.505
864,24.204,1.524
864.2,24.204,1.525
864.4,24.204,1.556
864.6,24.204,1.57
864.8,24.204,1.572
865,24.204,1.581
865.2,24.204,1.631
865.4,24.204,1.609
865.6,24.204,1.626
865.8,24.204,1.629
866,24.204,1.659
866.2,24.204,1.628
866.4,24.204,1.66
866.6,24.204,1.659
866.8,24.204,1.671
867,24.204,1.69
867.2,24.204,1.692
867.4,24.204,1.727
867.6,24.204,1.702
867.8,24.204,1.724
868,24.204,1.742
868.2,24.204,1.767
868.4,24.204,1.724
868.6,24.204,1.744
868.8,24.204,1.758
869,24.204,1.77
869.2,24.204,1.775
869.4,24.204,1.797
869.6,24.204,1.795
869.8,24.204,1.801
870,24.204,1.781
870.2,24.204,1.816
870.4,24.204,1.821
870.6,24.204,1.796
870.8,24.204,1.846
871,24.204,1.816
871.2,24.204,1.843
871.4,24.204,1.836
871.6,24.204,1.857
871.8,24.204,1.838
872,24.204,1.869
872.2,24.204,1.834
872.4,24.204,1.859
872.6,24.204,1.848
872.8,24.204,1.857
873,24.204,1.853
873.2,24.204,1.879
873.4,24.204,1.869
873.6,24.204,1.87
873.8,24.204,1.869
874,24.204,1.878
874.2,24.204,1.865
874.4,24.204,1.858
874.6,24.204,1.868
874.8,24.204,1.903
875,24.204,1.896
875.2,24.204,1.894
875.4,24.204,1.914
875.6,24.204,1.901
875.8,24.204,1.893
876,24.204,1.888
876.2,24.204,1.88
876.4,24.204,1.903
876.6,24.204,1.88
876.8,24.204,1.896
877,24.204,1.902
877.2,24.204,1.892
877.4,24.204,1.921
877.6,24.204,1.876
877.8,24.204,1.898
878,24.204,1.899
878.2,24.204,1.913
878.4,24.204,1.914
878.6,24.204,1.928
878.8,24.204,1.903
879,24.204,1.932
879.2,24.204,1.903
879.4,24.204,1.914
879.6,24.204,1.918
879.8,24.204,1.917
880,24.204,1.92
880.2,24.204,1.94
880.4,24.204,1.967
880.6,24.204,1.938
880.8,24.204,1.912
881,24.204,1.904
881.2,24.204,1.937
881.4,24.204,1.933
881.6,24.204,1.926
881.8,24.204,1.927
882,24.204,1.932
882.2,24.204,1.932
882.4,24.204,1.927
882.6,24.204,1.934
882.8,24.204,1.917
883,24.204,1.934
883.2,24.204,1.924
883.4,24.204,1.932
883.6,24.204,1.92
883.8,24.204,1.918
884,24.204,1.931
884.2,24.204,1.943
884.4,24.204,1.943
884.6,24.204,1.93
884.8,24.204,1.927
885,24.204,1.932
885.2,24.204,1.922
885.4,24.204,1.937
885.6,24.204,1.901
885.8,24.204,1.927
886,24.204,1.92
886.2,24.204,1.944
886.4,24.204,1.933
886.6,24.204,1.944
886.8,24.204,1.934
887,24.204,1.93
887.2,24.204,1.939
887.4,24.204,1.929
887.6,24.204,1.919
887.8,24.204,1.941
888,24.204,1.942
888.2,24.204,1.956
888.4,24.204,1.946
888.6,24.204,1.924
888.8,24.204,1.942
889,24.204,1.966
889.2,19.289,1.927
889.4,19.289,1.938
889.6,19.289,1.934
889.8,19.289,1.917
890,19.289,1.929
890.2,19.289,1.912
890.4,19.289,1.875
890.6,19.289,1.87
890.8,19.289,1.848
891,19.289,1.847
891.2,19.289,1.825
891.4,19.289,1.797
891.6,19.289,1.813
891.8,19.289,1.77
892,19.289,1.75
892.2,19.289,1.744
892.4,19.289,1.723
892.6,19.289,1.686
892.8,19.289,1.704
893,19.289,1.661
893.2,19.289,1.639
893.4,19.289,1.658
893.6,19.289,1.618
893.8,19.289,1.597
894,19.289,1.585
894.2,19.289,1.598
894.4,19.289,1.564
894.6,19.289,1.553
894.8,19.289,1.53
895,19.289,1.523
895.2,19.289,1.511
895.4,19.289,1.489
895.6,19.289,1.489
895.8,19.289,1.486
896,19.289,1.453
896.2,19.289,1.454
896.4,19.289,1.446
896.6,19.289,1.443
896.8,19.289,1.456
897,19.289,1.414
897.2,19.289,1.42
897.4,19.289,1.384
897.6,19.289,1.402
897.8,19.289,1.375
898,19.289,1.397
898.2,19.289,1.374
898.4,19.289,1.343
898.6,19.289,1.356
898.8,19.289,1.393
899,19.289,1.385
899.2,19.289,1.357
899.4,19.289,1.332
899.6,19.289,1.358
899.8,19.289,1.319
900,19.289,1.308
900.2,19.289,1.331
900.4,19.289,1.301
900.6,19.289,1.325
900.8,19.289,1.303
901,19.289,1.327
901.2,19.289,1.317
901.4,19.289,1.311
901.6,19.289,1.317
901.8,19.289,1.327
902,19.289,1.27
902.2,19.289,1.3
902.4,19.289,1.293
902.6,19.289,1.3
902.8,19.289,1.266
903,19.289,1.304
903.2,19.289,1.273
903.4,19.289,1.27
903.6,19.289,1.287
903.8,19.289,1.256
904,19.289,1.261
904.2,19.289,1.27
904.4,19.289,1.274
904.6,19.289,1.27
904.8,22.201,1.276
905,22.201,1.27
905.2,22.201,1.251
905.4,22.201,1.275
905.6,22.201,1.28
905.8,22.201,1.273
906,22.201,1.3
906.2,22.201,1.309
906.4,22.201,1.296
906.6,22.201,1.305
906.8,22.201,1.311
907,22.201,1.327
907.2,22.201,1.336
907.4,22.201,1.342
907.6,22.201,1.342
907.8,22.201,1.353
908,22.201,1.36
908.2,22.201,1.371
908.4,22.201,1.399
908.6,22.201,1.382
908.8,22.201,1.395
909,22.201,1.427
909.2,22.201,1.405
909.4,22.201,1.408
909.6,22.201,1.454
909.8,22.201,1.424
910,22.201,1.48
910.2,22.201,1.457
910.4,22.201,1.475
910.6,22.201,1.459
910.8,22.201,1.453
911,22.201,1.452
911.2,22.201,1.48
911.4,22.201,1.487
911.6,22.201,1.489
911.8,22.201,1.482
912,22.201,1.483
912.2,22.201,1.501
912.4,22.201,1.531
912.6,22.201,1.514
912.8,22.201,1.506
913,22.201,1.522
913.2,22.201,1.522
913.4,22.201,1.54
913.6,22.201,1.53
913.8,22.201,1.546
914,22.201,1.537
914.2,22.201,1.526
914.4,22.201,1.55
914.6,22.201,1.564
914.8,22.201,1.537
915,22.201,1.566
915.2,22.201,1.556
915.4,22.201,1.58
915.6,22.201,1.569
915.8,22.201,1.582
916,22.201,1.592
916.2,22.201,1.566
916.4,22.201,1.573
916.6,22.201,1.579
916.8,22.201,1.585
917,22.201,1.565
917.2,22.201,1.597
917.4,22.201,1.573
917.6,22.201,1.587
917.8,22.201,1.606
918,22.201,1.617
918.2,22.201,1.582
918.4,22.201,1.591
918.6,22.201,1.563
918.8,22.201,1.613
919,22.201,1.592
919.2,22.201,1.586
919.4,22.201,1.619
919.6,22.201,1.601
919.8,22.201,1.594
920,22.201,1.599
920.2,22.201,1.612
920.4,22.201,1.632
920.6,22.201,1.611
920.8,22.201,1.611
921,22.201,1.59
921.2,22.201,1.591
921.4,22.201,1.626
921.6,22.201,1.597
921.8,22.201,1.599
922,22.201,1.617
922.2,22.201,1.589
922.4,22.201,1.624
922.6,22.201,1.646
922.8,22.201,1.612
923,22.201,1.606
923.2,22.201,1.602
923.4,22.201,1.606
923.6,22.201,1.631
923.8,22.201,1.604
924,22.201,1.609
924.2,22.201,1.638
924.4,22.201,1.615
924.6,22.201,1.613
924.8,22.201,1.631
925,22.201,1.615
925.2,22.201,1.626
925.4,22.201,1.642
925.6,22.201,1.623
925.8,22.201,1.618
926,22.201,1.629
926.2,22.201,1.629
926.4,22.201,1.638
926.6,22.201,1.608
926.8,22.201,1.625
927,22.201,1.626
927.2,22.201,1.64
927.4,22.201,1.62
927.6,22.201,1.632
927.8,22.201,1.616
928,22.201,1.616
928.2,22.201,1.604
928.4,22.201,1.626
928.6,22.201,1.621
928.8,22.201,1.613
929,22.201,1.644
929.2,22.201,1.642
929.4,22.201,1.588
929.6,22.201,1.625
929.8,22.201,1.635
930,22.201,1.629
930.2,22.201,1.64
930.4,22.201,1.635
930.6,22.201,1.644
930.8,22.201,1.619
931,22.201,1.643
931.2,22.201,1.608
931.4,22.201,1.628
931.6,22.201,1.626
931.8,22.201,1.63
932,22.201,1.637
932.2,22.201,1.617
932.4,22.201,1.614
932.6,22.201,1.643
932.8,22.201,1.621
933,22.201,1.633
933.2,22.201,1.638
933.4,22.201,1.619
933.6,22.201,1.65
933.8,22.201,1.626
934,22.201,1.63
934.2,22.201,1.626
934.4,22.201,1.626
934.6,22.201,1.635
934.8,22.201,1.619
935,22.201,1.621
935.2,22.201,1.611
935.4,22.201,1.617
935.6,22.201,1.629
935.8,22.201,1.632
936,17.676,1.616
936.2,17.676,1.633
936.4,17.676,1.628
936.6,17.676,1.612
936.8,17.676,1.612
937,17.676,1.608
937.2,17.676,1.563
937.4,17.676,1.568
937.6,17.676,1.553
937.8,17.676,1.535
938,17.676,1.504
938.2,17.676,1.542
938.4,17.676,1.478
938.6,17.676,1.48
938.8,17.676,1.452
939,17.676,1.467
939.2,17.676,1.45
939.4,17.676,1.42
939.6,17.676,1.391
939.8,17.676,1.4
940,17.676,1.37
940.2,17.676,1.337
940.4,17.676,1.335
940.6,17.676,1.343
940.8,17.676,1.334
941,17.676,1.334
941.2,17.676,1.284
941.4,17.676,1.285
941.6,17.676,1.273
941.8,17.676,1.281
942,17.676,1.269
942.2,17.676,1.24
942.4,17.676,1.236
942.6,17.676,1.238
942.8,17.676,1.213
943,17.676,1.225
943.2,17.676,1.244
943.4,17.676,1.193
943.6,17.676,1.191
943.8,17.676,1.19
944,17.676,1.183
944.2,17.676,1.179
944.4,17.676,1.178
944.6,17.676,1.177
944.8,17.676,1.158
945,17.676,1.17
945.2,17.676,1.143
945.4,17.676,1.149
945.6,17.676,1.134
945.8,17.676,1.121
946,17.676,1.122
946.2,17.676,1.131
946.4,17.676,1.149
946.6,17.676,1.118
946.8,17.676,1.106
947,17.676,1.118
947.2,17.676,1.132
947.4,17.676,1.097
947.6,17.676,1.098
947.8,17.676,1.074
948,17.676,1.089
948.2,17.676,1.087
948.4,17.676,1.09
948.6,17.676,1.067
948.8,17.676,1.098
949,17.676,1.103
949.2,17.676,1.1
949.4,17.676,1.083
949.6,17.676,1.092
949.8,17.676,1.084
950,17.676,1.077
950.2,17.676,1.072
950.4,17.676,1.083
950.6,17.676,1.077
950.8,17.676,1.09
951,17.676,1.076
951.2,17.676,1.06
951.4,17.676,1.068
951.6,23.174,1.055
951.8,23.174,1.062
952,23.174,1.065
952.2,23.174,1.077
952.4,23.174,1.066
952.6,23.174,1.106
952.8,23.174,1.095
953,23.174,1.135
953.2,23.174,1.146
953.4,23.174,1.161
953.6,23.174,1.167
953.8,23.174,1.18
954,23.174,1.214
954.2,23.174,1.212
954.4,23.174,1.24
954.6,23.174,1.25
954.8,23.174,1.265
955,23.174,1.253
955.2,23.174,1.282
955.4,23.174,1.314
955.6,23.174,1.327
955.8,23.174,1.324
956,23.174,1.377
956.2,23.174,1.392
956.4,23.174,1.389
956.6,23.174,1.388
956.8,23.174,1.402
957,23.174,1.412
957.2,23.174,1.414
957.4,23.174,1.451
957.6,23.174,1.457
957.8,23.174,1.479
958,23.174,1.49
958.2,23.174,1.487
958.4,23.174,1.494
958.6,23.174,1.504
958.8,23.174,1.535
959,23.174,1.526
959.2,23.174,1.525
959.4,23.174,1.551
959.6,23.174,1.56
959.8,23.174,1.572
960,23.174,1.575
960.2,23.174,1.561
960.4,23.174,1.613
960.6,23.174,1.603
960.8,23.174,1.596
961,23.174,1.617
961.2,23.174,1.647
961.4,23.174,1.602
961.6,23.174,1.62
961.8,23.174,1.624
962,23.174,1.633
962.2,23.174,1.643
962.4,23.174,1.666
962.6,23.174,1.64
962.8,23.174,1.655
963,23.174,1.657
963.2,23.174,1.646
963.4,23.174,1.671
963.6,23.174,1.673
963.8,23.174,1.637
964,23.174,1.686
964.2,23.174,1.71
964.4,23.174,1.676
964.6,23.174,1.685
964.8,23.174,1.677
965,23.174,1.695
965.2,23.174,1.679
965.4,23.174,1.732
965.6,23.174,1.688
965.8,23.174,1.708
966,23.174,1.689
966.2,23.174,1.727
966.4,23.174,1.71
966.6,23.174,1.713
966.8,23.174,1.721
967,23.174,1.744
967.2,23.174,1.712
967.4,23.174,1.712
967.6,23.174,1.703
967.8,23.174,1.728
968,23.174,1.736
968.2,23.174,1.731
968.4,23.174,1.741
968.6,23.174,1.745
968.8,23.174,1.721
969,23.174,1.761
969.2,23.174,1.737
969.4,23.174,1.727
969.6,23.174,1.731
969.8,23.174,1.736
970,23.174,1.759
970.2,23.174,1.776
970.4,23.174,1.759
970.6,23.174,1.754
970.8,23.174,1.738
971,23.174,1.741
971.2,23.174,1.74
971.4,23.174,1.753
971.6,23.174,1.769
971.8,23.174,1.753
972,23.174,1.763
972.2,23.174,1.744
972.4,23.174,1.741
972.6,23.174,1.748
972.8,23.174,1.769
973,23.174,1.738
973.2,23.174,1.761
973.4,23.174,1.765
973.6,23.174,1.775
973.8,23.174,1.737
974,23.174,1.765
974.2,23.174,1.752
974.4,23.174,1.765
974.6,23.174,1.752
974.8,23.174,1.791
975,23.174,1.754
975.2,23.174,1.744
975.4,23.174,1.774
975.6,23.174,1.77
975.8,23.174,1.765
976,23.174,1.798
976.2,23.174,1.72
976.4,23.174,1.791
976.6,23.174,1.755
976.8,23.174,1.768
977,23.174,1.77
977.2,23.174,1.76
977.4,23.174,1.775
977.6,23.174,1.762
977.8,23.174,1.779
978,23.174,1.765
978.2,23.174,1.785
978.4,23.174,1.764
978.6,23.174,1.764
978.8,23.174,1.773
979,23.174,1.79
979.2,23.174,1.757
979.4,23.174,1.74
979.6,23.174,1.78
979.8,23.174,1.748
980,23.174,1.762
980.2,23.174,1.786
980.4,23.174,1.776
980.6,23.174,1.772
980.8,23.174,1.78
981,23.174,1.797
981.2,23.174,1.781
981.4,23.174,1.781
981.6,23.174,1.783
981.8,23.174,1.78
982,23.174,1.774
982.2,23.174,1.754
982.4,23.174,1.776
982.6,23.174,1.753
982.8,23.174,1.768
983,23.174,1.759
983.2,23.174,1.778
983.4,23.174,1.762
983.6,23.174,1.779
983.8,23.174,1.767
984,23.174,1.78
984.2,23.174,1.757
984.4,23.174,1.762
984.6,23.174,1.78
984.8,23.174,1.772
985,23.174,1.766
985.2,23.174,1.762
985.4,23.174,1.772
985.6,23.174,1.746
985.8,23.174,1.763
986,23.174,1.793
986.2,23.174,1.811
986.4,23.174,1.779
986.6,23.174,1.762
986.8,23.174,1.793
987,23.174,1.789
987.2,23.174,1.766
987.4,23.174,1.759
987.6,23.174,1.775
987.8,23.174,1.795
988,23.174,1.776
988.2,23.174,1.762
988.4,23.174,1.768
988.6,23.174,1.756
988.8,23.174,1.752
989,23.174,1.755
989.2,23.174,1.767
989.4,23.174,1.795
989.6,23.174,1.789
989.8,23.174,1.783
990,23.174,1.773
990.2,23.174,1.79
990.4,23.174,1.785
990.6,23.174,1.765
990.8,23.174,1.782
991,23.174,1.76
991.2,23.174,1.799
991.4,23.174,1.774
991.6,23.174,1.776
991.8,23.174,1.754
992,23.174,1.779
992.2,23.174,1.773
992.4,23.174,1.746
992.6,23.174,1.764
992.8,23.174,1.792
993,23.174,1.784
993.2,23.174,1.777
993.4,23.174,1.788
993.6,23.174,1.785
993.8,23.174,1.767
994,23.174,1.766
994.2,23.174,1.749
994.4,23.174,1.786
994.6,23.174,1.776
994.8,23.174,1.75
995,23.174,1.751
995.2,23.174,1.779
995.4,23.174,1.777
995.6,23.174,1.782
995.8,23.174,1.765
996,23.174,1.782
996.2,23.174,1.8
996.4,23.174,1.786
996.6,23.174,1.769
996.8,23.174,1.778
997,23.174,1.767
997.2,23.174,1.773
997.4,23.174,1.784
997.6,23.174,1.78
997.8,23.174,1.761
998,23.174,1.767
998.2,23.174,1.765
998.4,17.978,1.785
998.6,17.978,1.776
998.8,17.978,1.763
999,17.978,1.775
999.2,17.978,1.771
999.4,17.978,1.732
999.6,17.978,1.714
999.8,17.978,1.733
1000,17.978,1.711
